<svg xmlns="http://www.w3.org/2000/svg" width="449" height="321" viewBox="0 0 449 321">
    <g fill="none" fill-rule="evenodd">
        <path fill="#3F424F" d="M58.755 291.048h-.82V281.9l-2.53.294v-.574l3.35-.601zM37.077 278.138c0 1.285-.278 2.274-.834 2.966-.556.693-1.328 1.04-2.317 1.04-.985 0-1.758-.348-2.321-1.043-.563-.695-.844-1.683-.844-2.963v-2.222c0-1.28.278-2.27.834-2.967.556-.697 1.328-1.046 2.317-1.046.989 0 1.764.349 2.324 1.046.56.697.841 1.686.841 2.967v2.222zm-.82-2.359c0-1.02-.2-1.806-.602-2.355-.4-.549-.982-.823-1.743-.823-.761 0-1.34.274-1.736.823-.397.55-.595 1.334-.595 2.355v2.482c0 1.011.202 1.796.605 2.355.403.558.983.837 1.74.837.756 0 1.334-.278 1.733-.834.398-.556.598-1.342.598-2.358v-2.482zM31.533 217.495l.554-5.448h4.833v.759h-4.136l-.369 3.548a2.8 2.8 0 0 1 .827-.527c.301-.123.709-.191 1.224-.205.847-.014 1.531.271 2.05.855.52.583.78 1.367.78 2.351 0 1.007-.252 1.812-.755 2.413-.504.602-1.262.903-2.273.903-.82 0-1.504-.23-2.051-.687-.547-.458-.81-1.136-.786-2.034l.013-.041h.732c0 .67.19 1.182.57 1.538.381.355.888.533 1.522.533.738 0 1.29-.223 1.657-.67.367-.446.55-1.094.55-1.941 0-.743-.183-1.339-.55-1.788-.367-.449-.88-.673-1.541-.673-.638 0-1.125.101-1.46.304-.335.203-.577.51-.728.92l-.663-.11zM26.714 165.048h-.82V155.9l-2.53.294v-.574l3.35-.601v10.028zm10.363-3.91c0 1.285-.278 2.274-.834 2.966-.556.693-1.328 1.04-2.317 1.04-.985 0-1.758-.348-2.321-1.043-.563-.695-.844-1.683-.844-2.963v-2.222c0-1.28.278-2.27.834-2.967.556-.697 1.328-1.046 2.317-1.046.989 0 1.764.349 2.324 1.046.56.697.841 1.686.841 2.967v2.222zm-.82-2.359c0-1.02-.2-1.806-.602-2.355-.4-.549-.982-.823-1.743-.823-.761 0-1.34.274-1.736.823-.397.55-.595 1.334-.595 2.355v2.482c0 1.011.202 1.796.605 2.355.403.558.983.837 1.74.837.756 0 1.334-.278 1.733-.834.398-.556.598-1.342.598-2.358v-2.482zM27.117 105.048h-.82V95.9l-2.53.294v-.574l3.35-.601v10.028zm4.416-4.553l.554-5.448h4.833v.759h-4.136l-.369 3.548a2.8 2.8 0 0 1 .827-.527c.301-.123.709-.191 1.224-.205.847-.014 1.531.271 2.05.855.52.583.78 1.367.78 2.351 0 1.007-.252 1.812-.755 2.413-.504.602-1.262.903-2.273.903-.82 0-1.504-.23-2.051-.687-.547-.458-.81-1.136-.786-2.034l.013-.041h.732c0 .67.19 1.182.57 1.538.381.355.888.533 1.522.533.738 0 1.29-.223 1.657-.67.367-.446.55-1.094.55-1.941 0-.743-.183-1.339-.55-1.788-.367-.449-.88-.673-1.541-.673-.638 0-1.125.101-1.46.304-.335.203-.577.51-.728.92l-.663-.11zM29.195 48h-6.18v-.629l3.261-3.698c.602-.68 1.027-1.248 1.275-1.706.249-.458.373-.896.373-1.316 0-.62-.174-1.116-.523-1.49-.349-.374-.842-.56-1.48-.56-.757 0-1.33.21-1.723.628-.392.42-.588.98-.588 1.682h-.758l-.014-.04c-.023-.83.246-1.532.807-2.106.56-.575 1.319-.862 2.276-.862.857 0 1.543.246 2.058.739.514.492.772 1.153.772 1.982 0 .547-.172 1.102-.516 1.665-.344.562-.824 1.19-1.44 1.883l-2.74 3.103.013.035h5.127V48zm7.882-3.862c0 1.285-.278 2.274-.834 2.966-.556.693-1.328 1.04-2.317 1.04-.985 0-1.758-.348-2.321-1.043-.563-.695-.844-1.683-.844-2.963v-2.222c0-1.28.278-2.27.834-2.967.556-.697 1.328-1.046 2.317-1.046.989 0 1.764.349 2.324 1.046.56.697.841 1.686.841 2.967v2.222zm-.82-2.359c0-1.02-.2-1.806-.602-2.355-.4-.549-.982-.823-1.743-.823-.761 0-1.34.274-1.736.823-.397.55-.595 1.334-.595 2.355v2.482c0 1.011.202 1.796.605 2.355.403.558.983.837 1.74.837.756 0 1.334-.278 1.733-.834.398-.556.598-1.342.598-2.358v-2.482zM96.875 285.58h.95c.725 0 1.274-.182 1.648-.544.374-.363.56-.829.56-1.398 0-.62-.175-1.115-.526-1.484-.35-.369-.872-.553-1.565-.553-.638 0-1.161.188-1.569.564-.408.376-.612.871-.612 1.486h-.765l-.014-.04c-.023-.775.248-1.42.813-1.935.566-.515 1.281-.773 2.147-.773.889 0 1.596.244 2.122.732.527.487.79 1.164.79 2.03 0 .47-.146.91-.437 1.323-.292.412-.702.719-1.231.92.62.177 1.084.477 1.391.898.308.422.462.92.462 1.494 0 .884-.286 1.579-.858 2.085-.572.506-1.307.759-2.205.759-.87 0-1.618-.248-2.242-.742-.624-.495-.925-1.182-.902-2.061l.013-.041h.766c0 .633.22 1.15.66 1.552.44.4 1.008.601 1.705.601.706 0 1.258-.183 1.654-.55.397-.367.595-.892.595-1.576 0-.697-.207-1.213-.622-1.548-.415-.335-1.007-.503-1.777-.503h-.95v-.697zM135.413 286.495l.553-5.448h4.833v.759h-4.135l-.37 3.548a2.8 2.8 0 0 1 .828-.527c.3-.123.708-.191 1.223-.205.848-.014 1.531.271 2.051.855.52.583.78 1.367.78 2.351 0 1.007-.252 1.812-.756 2.413-.504.602-1.261.903-2.273.903-.82 0-1.504-.23-2.05-.687-.548-.458-.81-1.136-.787-2.034l.014-.041h.731c0 .67.19 1.182.571 1.538.38.355.888.533 1.521.533.738 0 1.29-.223 1.658-.67.367-.446.55-1.094.55-1.941 0-.743-.183-1.339-.55-1.788-.367-.449-.881-.673-1.542-.673-.638 0-1.124.101-1.46.304-.334.203-.577.51-.727.92l-.663-.11zM181.175 281.744c-1.075 1.276-1.898 2.572-2.467 3.886-.57 1.315-.95 2.827-1.142 4.536l-.075.834h-.82l.075-.834c.191-1.686.587-3.212 1.19-4.577a16.33 16.33 0 0 1 2.392-3.845h-5.681v-.697h6.528v.697zM217.614 290.453c.756 0 1.358-.253 1.804-.759.447-.506.67-1.23.67-2.173v-.999c-.241.42-.566.743-.974.971a2.748 2.748 0 0 1-1.364.342c-.906 0-1.637-.314-2.19-.943-.554-.63-.831-1.443-.831-2.44 0-1.008.29-1.851.872-2.53.58-.68 1.3-1.019 2.156-1.019.962 0 1.732.314 2.31.94.58.627.869 1.537.869 2.731v2.933c0 1.153-.305 2.047-.916 2.683-.61.636-1.413.954-2.406.954-.356 0-.712-.035-1.07-.103a4.794 4.794 0 0 1-1.022-.314l.15-.684c.31.146.617.25.92.314a4.98 4.98 0 0 0 1.022.096zm.136-3.308c.593 0 1.089-.152 1.487-.455.4-.303.683-.678.851-1.125v-1.052c0-.944-.206-1.665-.618-2.164-.413-.499-.972-.748-1.678-.748-.643 0-1.173.278-1.59.834-.417.556-.625 1.228-.625 2.016 0 .766.196 1.406.588 1.921.391.515.92.773 1.585.773zM254.876 291.048h-.82V281.9l-2.53.294v-.574l3.35-.601v10.028zm7.759 0h-.82V281.9l-2.53.294v-.574l3.35-.601v10.028zM294.876 291.048h-.82V281.9l-2.53.294v-.574l3.35-.601v10.028zm5.879-5.469h.95c.725 0 1.274-.181 1.648-.543.373-.363.56-.829.56-1.398 0-.62-.175-1.115-.526-1.484-.351-.369-.873-.553-1.566-.553-.638 0-1.16.188-1.569.564-.407.376-.611.871-.611 1.486h-.766l-.014-.04c-.022-.775.249-1.42.814-1.935.565-.515 1.28-.773 2.146-.773.889 0 1.596.244 2.123.732.526.487.79 1.164.79 2.03 0 .47-.146.91-.438 1.323-.292.412-.702.719-1.23.92.62.177 1.083.477 1.39.898.308.422.462.92.462 1.494 0 .884-.286 1.579-.858 2.085-.572.506-1.307.759-2.205.759-.87 0-1.617-.248-2.242-.742-.624-.495-.925-1.182-.902-2.061l.014-.041h.765c0 .633.22 1.15.66 1.552.44.4 1.008.601 1.705.601.707 0 1.258-.183 1.655-.55.396-.367.594-.892.594-1.576 0-.697-.207-1.213-.622-1.548-.414-.335-1.007-.503-1.777-.503h-.95v-.697zM334.876 291.048h-.82V281.9l-2.53.294v-.574l3.35-.601v10.028zm4.416-4.553l.554-5.448h4.833v.759h-4.136l-.37 3.548a2.8 2.8 0 0 1 .828-.527c.3-.123.709-.191 1.224-.205.847-.014 1.53.271 2.05.855.52.583.78 1.367.78 2.351 0 1.007-.252 1.812-.756 2.413-.503.602-1.26.903-2.273.903-.82 0-1.504-.23-2.05-.687-.547-.458-.81-1.136-.787-2.034l.014-.041h.732c0 .67.19 1.182.57 1.538.38.355.888.533 1.521.533.739 0 1.291-.223 1.658-.67.367-.446.55-1.094.55-1.941 0-.743-.183-1.339-.55-1.788-.367-.449-.88-.673-1.541-.673-.638 0-1.125.101-1.46.304-.335.203-.578.51-.728.92l-.663-.11zM374.876 291.048h-.82V281.9l-2.53.294v-.574l3.35-.601v10.028zm10.179-9.304c-1.076 1.276-1.898 2.572-2.468 3.886-.57 1.315-.95 2.827-1.142 4.536l-.075.834h-.82l.075-.834c.191-1.686.588-3.212 1.19-4.577a16.33 16.33 0 0 1 2.392-3.845h-5.68v-.697h6.528v.697zM414.876 291.048h-.82V281.9l-2.53.294v-.574l3.35-.601v10.028zm6.617-.595c.757 0 1.358-.253 1.805-.759.446-.506.67-1.23.67-2.173v-.999c-.242.42-.566.743-.974.971a2.748 2.748 0 0 1-1.364.342c-.907 0-1.637-.314-2.191-.943-.554-.63-.83-1.443-.83-2.44 0-1.008.29-1.851.871-2.53.581-.68 1.3-1.019 2.157-1.019.961 0 1.731.314 2.31.94.579.627.868 1.537.868 2.731v2.933c0 1.153-.305 2.047-.916 2.683-.61.636-1.412.954-2.406.954-.355 0-.712-.035-1.07-.103a4.794 4.794 0 0 1-1.022-.314l.15-.684c.31.146.617.25.92.314a4.98 4.98 0 0 0 1.022.096zm.137-3.308c.592 0 1.088-.152 1.487-.455.398-.303.682-.678.85-1.125v-1.052c0-.944-.205-1.665-.618-2.164-.412-.499-.972-.748-1.678-.748-.643 0-1.172.278-1.59.834-.416.556-.625 1.228-.625 2.016 0 .766.196 1.406.588 1.921.392.515.92.773 1.586.773zM214.582 307.148h-3.437V317h-1.899v-9.852h-3.437v-1.523h8.773v1.523zm3.266 9.852h-1.899v-8.453h1.899V317zm0-10.523h-1.899v-1.664h1.899v1.664zm3.859 2.07l.102 1.101c.276-.4.622-.71 1.039-.93.416-.218.898-.327 1.445-.327.552 0 1.026.125 1.422.375.396.25.693.625.89 1.125.26-.47.605-.836 1.032-1.102.427-.266.927-.398 1.5-.398.849 0 1.52.29 2.011.87.493.581.739 1.463.739 2.645V317h-1.899v-5.102c0-.718-.123-1.224-.37-1.515-.248-.292-.62-.438-1.114-.438-.406 0-.75.11-1.031.328a1.828 1.828 0 0 0-.61.883c0 .078.003.146.008.203.005.058.008.112.008.164V317h-1.899v-5.102c0-.692-.126-1.191-.378-1.496-.253-.304-.624-.457-1.114-.457-.385 0-.712.075-.98.223-.268.148-.48.358-.637.629V317h-1.898v-8.453h1.734zm15.805 8.617c-1.198 0-2.153-.392-2.864-1.176-.71-.784-1.066-1.79-1.066-3.02v-.312c0-1.229.353-2.248 1.059-3.058.705-.81 1.59-1.213 2.652-1.207 1.14 0 2.014.345 2.621 1.035.607.69.91 1.616.91 2.777v1.117h-5.273l-.016.04c.031.671.228 1.22.59 1.648.362.427.863.64 1.504.64.51 0 .948-.062 1.312-.187a4.3 4.3 0 0 0 1.055-.54l.61 1.243c-.318.281-.74.518-1.266.711-.526.193-1.136.29-1.828.29zm-.219-7.25c-.469 0-.854.186-1.156.559-.302.372-.49.845-.563 1.418l.016.039h3.351v-.196c0-.536-.136-.974-.41-1.312-.273-.339-.686-.508-1.238-.508zm9.047 2.461c0-2.052.407-3.798 1.222-5.238.816-1.44 1.697-2.382 2.645-2.825l.047.008.351 1.047c-.697.531-1.295 1.383-1.792 2.555-.498 1.172-.747 2.65-.747 4.437v.157c0 1.786.248 3.265.743 4.437.494 1.172 1.093 2.042 1.796 2.61l-.351 1h-.047c-.953-.448-1.836-1.391-2.648-2.829-.813-1.437-1.22-3.182-1.22-5.234v-.125zm5.078.516c0-1.35.289-2.437.867-3.262.578-.826 1.39-1.238 2.438-1.238.458 0 .868.092 1.23.277.362.185.676.45.942.793v-4.649h1.898V317h-1.594l-.187-1.047c-.271.396-.597.697-.977.902-.38.206-.823.31-1.328.31-1.036 0-1.844-.379-2.422-1.134-.578-.755-.867-1.747-.867-2.976v-.164zm1.898.164c0 .78.15 1.403.45 1.867.3.463.774.695 1.425.695.401 0 .741-.086 1.02-.258.279-.172.506-.416.684-.734v-3.688a1.999 1.999 0 0 0-.688-.73c-.281-.174-.615-.262-1-.262-.646 0-1.122.272-1.43.817-.307.544-.46 1.254-.46 2.129v.164zM265.918 317a7.006 7.006 0 0 1-.168-.625 4.468 4.468 0 0 1-.09-.61c-.26.396-.603.728-1.027.997-.425.268-.9.402-1.426.402-.88 0-1.556-.226-2.027-.68-.472-.453-.707-1.075-.707-1.867 0-.818.323-1.454.968-1.91.646-.456 1.555-.684 2.727-.684h1.477v-.742c0-.442-.13-.789-.391-1.039-.26-.25-.633-.375-1.117-.375-.433 0-.776.104-1.032.313a.992.992 0 0 0-.382.804h-1.828l-.008-.046c-.037-.667.261-1.258.894-1.774s1.457-.773 2.473-.773c.984 0 1.779.25 2.383.75.604.5.906 1.218.906 2.156v3.758c0 .349.023.683.07 1.004.047.32.123.634.227.941h-1.922zm-2.328-1.36c.479 0 .91-.12 1.293-.359.383-.24.637-.513.762-.82v-1.25h-1.508c-.552 0-.985.137-1.297.41-.313.274-.469.595-.469.965 0 .323.106.58.317.77.21.19.511.285.902.285zm8.75-2.03l.187.843h.047l1.852-5.906h2.078l-3.5 9.734a4.34 4.34 0 0 1-.945 1.508c-.407.417-.982.625-1.727.625a2.95 2.95 0 0 1-.504-.047 7.298 7.298 0 0 1-.52-.11l.212-1.468.289.024c.125.01.218.015.28.015.345 0 .62-.117.825-.351.206-.235.374-.506.504-.813l.312-.766-3.07-8.351h2.07l1.61 5.062zm10.055 1.093c0-.292-.125-.534-.375-.726-.25-.193-.717-.362-1.399-.508-1.01-.214-1.775-.517-2.293-.91-.518-.394-.777-.929-.777-1.606 0-.708.3-1.312.898-1.812.6-.5 1.388-.75 2.367-.75 1.032 0 1.85.254 2.457.761.607.508.898 1.137.872 1.887l-.016.047h-1.82a1.19 1.19 0 0 0-.399-.899c-.265-.25-.63-.375-1.094-.375-.458 0-.807.103-1.046.31a.958.958 0 0 0-.36.753c0 .297.113.533.34.707.227.175.686.33 1.379.465 1.062.219 1.85.527 2.363.926.513.398.77.941.77 1.629 0 .76-.314 1.377-.942 1.851-.627.474-1.454.711-2.48.711-1.1 0-1.966-.281-2.602-.844-.635-.562-.937-1.208-.906-1.937l.016-.047h1.765c.021.49.198.846.532 1.07.333.224.74.336 1.218.336.49 0 .867-.094 1.133-.281a.882.882 0 0 0 .399-.758zm7.03-2.203c0 2.026-.415 3.766-1.245 5.219-.831 1.453-1.723 2.4-2.676 2.844h-.047l-.36-1c.693-.532 1.29-1.391 1.79-2.579.5-1.187.75-2.677.75-4.468v-.157c0-1.77-.257-3.25-.77-4.441-.513-1.19-1.103-2.056-1.77-2.598l.36-1.007h.047c.948.437 1.838 1.385 2.672 2.843.833 1.459 1.25 3.198 1.25 5.219v.125zM184.455 12.531V19h-2.848V1.937h6.668c1.883 0 3.358.487 4.424 1.46 1.067.972 1.6 2.251 1.6 3.837 0 1.602-.533 2.885-1.6 3.85-1.066.965-2.54 1.447-4.424 1.447h-3.82zm0-2.285h3.82c1.055 0 1.848-.281 2.38-.844.53-.562.796-1.277.796-2.144 0-.867-.265-1.59-.797-2.168-.531-.578-1.324-.867-2.379-.867h-3.82v6.023zm11.766 2.297c0-1.883.515-3.43 1.547-4.64 1.046-1.212 2.464-1.817 4.253-1.817 1.82 0 3.247.605 4.278 1.816 1.039 1.203 1.558 2.75 1.558 4.641v.246c0 1.906-.52 3.461-1.558 4.664-1.031 1.195-2.45 1.793-4.254 1.793-1.813 0-3.238-.601-4.277-1.805-1.032-1.203-1.547-2.753-1.547-4.652v-.246zm2.847.246c0 1.234.243 2.242.727 3.024.476.773 1.226 1.16 2.25 1.16.992 0 1.734-.387 2.226-1.16.5-.782.75-1.79.75-3.024v-.246c0-1.211-.25-2.207-.75-2.988-.492-.79-1.242-1.184-2.25-1.184-.992 0-1.734.395-2.226 1.184-.484.789-.727 1.785-.727 2.988v.246zM213.377 19h-2.848V6.32h2.848V19zm0-15.785h-2.848V.719h2.848v2.496zm5.766 3.105l.164 1.828a4.535 4.535 0 0 1 1.564-1.517c.629-.363 1.338-.545 2.127-.545 1.32 0 2.35.4 3.088 1.201.738.8 1.107 2.049 1.107 3.744V19h-2.847v-7.945c0-.953-.198-1.631-.592-2.034-.395-.402-.994-.603-1.799-.603-.555 0-1.05.123-1.488.37a3.077 3.077 0 0 0-1.078 1.013V19h-2.848V6.32h2.602zm14.554-3.082V6.32h2.274v2.11h-2.274v7.008c0 .523.114.896.34 1.119.227.222.527.334.902.334.157 0 .309-.014.457-.041.149-.028.29-.065.422-.112l.305 2.086a3.266 3.266 0 0 1-.867.31 4.82 4.82 0 0 1-1.043.112c-1.047 0-1.867-.307-2.461-.92-.594-.613-.89-1.576-.89-2.889V8.43h-1.934V6.32h1.933V3.238h2.836zm17.907 12.317c0-.438-.188-.801-.563-1.09-.375-.29-1.074-.543-2.098-.762-1.515-.32-2.662-.775-3.44-1.365-.776-.59-1.165-1.393-1.165-2.408 0-1.063.45-1.97 1.348-2.72.898-.75 2.082-1.124 3.55-1.124 1.547 0 2.776.38 3.686 1.143.91.761 1.346 1.705 1.307 2.83l-.024.07h-2.73c0-.524-.2-.973-.598-1.348-.398-.375-.945-.562-1.64-.562-.688 0-1.212.154-1.571.463-.36.308-.539.685-.539 1.13 0 .446.17.8.51 1.061.34.262 1.029.494 2.068.697 1.594.328 2.775.791 3.545 1.389s1.154 1.412 1.154 2.443c0 1.141-.47 2.067-1.412 2.778-.941.71-2.181 1.066-3.72 1.066-1.649 0-2.95-.422-3.903-1.266-.953-.843-1.406-1.812-1.36-2.906l.024-.07h2.649c.03.734.297 1.27.797 1.605.5.336 1.109.504 1.828.504.734 0 1.3-.14 1.699-.422.398-.28.598-.66.598-1.136zm4.828-3.012c0-1.883.515-3.43 1.547-4.64 1.046-1.212 2.464-1.817 4.253-1.817 1.82 0 3.247.605 4.278 1.816 1.039 1.203 1.558 2.75 1.558 4.641v.246c0 1.906-.52 3.461-1.558 4.664-1.031 1.195-2.45 1.793-4.254 1.793-1.813 0-3.238-.601-4.277-1.805-1.032-1.203-1.547-2.753-1.547-4.652v-.246zm2.847.246c0 1.234.242 2.242.727 3.024.476.773 1.226 1.16 2.25 1.16.992 0 1.734-.387 2.226-1.16.5-.782.75-1.79.75-3.024v-.246c0-1.211-.25-2.207-.75-2.988-.492-.79-1.242-1.184-2.25-1.184-.992 0-1.734.395-2.226 1.184-.485.789-.727 1.785-.727 2.988v.246zm19.172 4.36c-.398.671-.902 1.189-1.512 1.552-.609.363-1.312.545-2.109.545-1.36 0-2.422-.433-3.187-1.3-.766-.868-1.149-2.216-1.149-4.044V6.32h2.836v7.606c0 1.11.18 1.886.54 2.332.359.445.901.668 1.628.668.688 0 1.264-.123 1.729-.37a2.68 2.68 0 0 0 1.095-1.072V6.32h2.848V19h-2.484l-.235-1.852zm12.012-8.262l-1.219-.047c-.555 0-1.017.117-1.389.351a2.315 2.315 0 0 0-.86.996V19h-2.849V6.32h2.602l.188 1.84c.32-.648.732-1.156 1.236-1.523a2.878 2.878 0 0 1 1.74-.551c.172 0 .332.014.48.041.149.027.286.06.41.1l-.34 2.66zm7.23 8.086c.696 0 1.282-.205 1.758-.616.477-.41.715-.923.715-1.54h2.578l.024.07c.039 1.187-.444 2.21-1.448 3.07-1.004.86-2.213 1.29-3.627 1.29-1.867 0-3.298-.602-4.295-1.806-.996-1.203-1.494-2.726-1.494-4.57v-.41c0-1.836.498-3.357 1.494-4.565.997-1.207 2.428-1.81 4.295-1.81 1.524 0 2.76.443 3.71 1.33.949.887 1.408 2.014 1.376 3.38l-.023.071h-2.59c0-.695-.228-1.285-.686-1.77-.457-.484-1.052-.726-1.787-.726-1.07 0-1.828.389-2.273 1.166-.445.777-.668 1.752-.668 2.924v.41c0 1.195.223 2.178.668 2.947.445.77 1.203 1.155 2.273 1.155zm12.797 2.273c-1.797 0-3.228-.588-4.295-1.764-1.066-1.175-1.6-2.685-1.6-4.529v-.469c0-1.843.53-3.373 1.589-4.588 1.058-1.214 2.384-1.818 3.978-1.81 1.711 0 3.022.518 3.932 1.553.91 1.035 1.365 2.423 1.365 4.166v1.675h-7.91l-.024.06c.047 1.007.342 1.831.885 2.472.543.64 1.295.96 2.256.96.766 0 1.422-.093 1.969-.28a6.45 6.45 0 0 0 1.582-.81l.914 1.864c-.477.422-1.11.777-1.899 1.067-.789.289-1.703.433-2.742.433zm-.328-10.875c-.703 0-1.281.28-1.734.838-.453.559-.735 1.268-.844 2.127l.023.059h5.028v-.293c0-.805-.205-1.461-.615-1.97-.41-.507-1.03-.76-1.858-.76zM7.977 171.828l.046-.016c1.151-.02 2.088.353 2.809 1.122.721.768 1.082 1.808 1.082 3.12 0 1.329-.447 2.408-1.34 3.239-.893.83-2.035 1.246-3.426 1.246H4.984c-1.385 0-2.527-.41-3.425-1.23-.899-.82-1.348-1.887-1.348-3.2 0-1.343.353-2.402 1.059-3.175.705-.774 1.654-1.15 2.847-1.13l.047.016v1.836c-.766 0-1.362.207-1.789.621-.427.414-.64 1.025-.64 1.832 0 .776.307 1.392.921 1.848.615.456 1.386.684 2.313.684h2.18c.937 0 1.713-.233 2.328-.7.614-.466.921-1.095.921-1.886 0-.787-.21-1.383-.632-1.79-.422-.406-1.019-.609-1.79-.609v-1.828zm3.773-6.719a7.006 7.006 0 0 1-.625.168 4.468 4.468 0 0 1-.61.09c.396.26.728.603.997 1.028.268.424.402.9.402 1.425 0 .88-.226 1.556-.68 2.028-.453.471-1.075.707-1.867.707-.818 0-1.454-.323-1.91-.97-.456-.645-.684-1.554-.684-2.726v-1.476h-.742c-.442 0-.789.13-1.039.39-.25.26-.375.633-.375 1.118 0 .432.104.776.313 1.03a.992.992 0 0 0 .804.384v1.828l-.046.008c-.667.036-1.258-.262-1.774-.895s-.773-1.457-.773-2.473c0-.984.25-1.778.75-2.382.5-.605 1.218-.907 2.156-.907h3.758a6.93 6.93 0 0 0 1.004-.07 5.33 5.33 0 0 0 .941-.226v1.921zm-1.36 2.328c0-.479-.12-.91-.359-1.292-.24-.383-.513-.637-.82-.762H7.96v1.508c0 .552.137.984.41 1.297.274.312.595.468.965.468.323 0 .58-.105.77-.316.19-.211.285-.512.285-.903zm-.937-10.695c-.292 0-.534.125-.726.375-.193.25-.362.716-.508 1.399-.214 1.01-.517 1.774-.91 2.293-.394.518-.929.777-1.606.777-.708 0-1.312-.3-1.812-.899-.5-.598-.75-1.388-.75-2.367 0-1.03.254-1.85.761-2.457.508-.606 1.137-.897 1.887-.87l.047.015v1.82a1.19 1.19 0 0 0-.899.399c-.25.265-.375.63-.375 1.093 0 .459.103.808.31 1.047.205.24.456.36.753.36a.846.846 0 0 0 .707-.34c.175-.227.33-.686.465-1.38.219-1.062.527-1.85.926-2.362.398-.513.941-.77 1.629-.77.76 0 1.377.314 1.851.941.474.628.711 1.455.711 2.48 0 1.1-.281 1.967-.844 2.602-.562.636-1.208.938-1.937.907l-.047-.016v-1.766c.49-.02.846-.197 1.07-.53.224-.334.336-.74.336-1.22 0-.49-.094-.867-.281-1.132a.882.882 0 0 0-.758-.399zm2.461-7.195c0 1.198-.392 2.152-1.176 2.863-.784.711-1.79 1.067-3.02 1.067h-.312c-1.229 0-2.248-.353-3.058-1.059-.81-.706-1.213-1.59-1.207-2.652 0-1.141.345-2.015 1.035-2.621.69-.607 1.616-.91 2.777-.91H8.07v5.273l.04.015c.671-.03 1.22-.227 1.648-.59.427-.361.64-.863.64-1.503 0-.51-.062-.948-.187-1.313a4.3 4.3 0 0 0-.54-1.054l1.243-.61c.281.318.518.74.711 1.266.193.526.29 1.135.29 1.828zm-7.25.219c0 .468.186.854.559 1.156.372.302.845.49 1.418.562l.039-.015v-3.352h-.196c-.536 0-.974.137-1.312.41-.339.274-.508.687-.508 1.239zm4.79-9.813c-.293 0-.535.125-.727.375-.193.25-.362.716-.508 1.399-.214 1.01-.517 1.774-.91 2.293-.394.518-.929.777-1.606.777-.708 0-1.312-.3-1.812-.899s-.75-1.388-.75-2.367c0-1.031.254-1.85.761-2.457.508-.607 1.137-.897 1.887-.87l.047.015v1.82a1.19 1.19 0 0 0-.899.398c-.25.266-.375.63-.375 1.094 0 .459.103.808.31 1.047.205.24.456.36.753.36a.846.846 0 0 0 .707-.34c.175-.227.33-.687.465-1.38.219-1.062.527-1.85.926-2.363.398-.513.941-.77 1.629-.77.76 0 1.377.315 1.851.942.474.628.711 1.455.711 2.48 0 1.1-.281 1.967-.844 2.602-.562.636-1.208.938-1.937.907L9.086 145v-1.766c.49-.02.846-.198 1.07-.53.224-.334.336-.74.336-1.22 0-.49-.094-.867-.281-1.132a.882.882 0 0 0-.758-.399z"/>
        <path stroke="#D8E5EF" stroke-linecap="square" d="M48.5 281V42.5M68.5 281v-4.5M88.5 281v-5M108.5 281v-5M128.5 281v-5M148.5 281v-5M168.5 281v-5M188.5 281v-5M208.5 281v-5M228.5 281v-5M248.5 281v-5M268.5 281v-5M288.5 281v-5M308.5 281v-5M328.5 281v-5M348.5 281v-5M368.5 281v-5M388.5 281v-5M408.5 281v-5M428.5 281v-5M42.501 42.5H448.5M42.501 159.5H448.5M42.501 101.5H448.5M42.501 217.5H448.5M42.501 275.5H448.5"/>
        <path fill="#3784F4" d="M48 267h20v8H48zM68 159h20v116H68zM88 42h20v233H88zM108 216h20v59h-20zM128 227h20v48h-20zM148 249h20v26h-20zM168 262h20v13h-20z"/>
    </g>
</svg>
