<?xml version="1.0" encoding="utf-8"?>
<!-- Generator: Adobe Illustrator 23.0.1, SVG Export Plug-In . SVG Version: 6.00 Build 0)  -->
<svg version="1.1" id="Layer_1" xmlns="http://www.w3.org/2000/svg" xmlns:xlink="http://www.w3.org/1999/xlink" x="0px" y="0px"
	 viewBox="0 0 428 579" style="enable-background:new 0 0 428 579;" xml:space="preserve">
<style type="text/css">
	.st0{fill:#A6B3BC;}
	.st1{fill-rule:evenodd;clip-rule:evenodd;fill:#A6B3BC;}
	.st2{opacity:0.16;fill-rule:evenodd;clip-rule:evenodd;fill:#A6B3BC;enable-background:new    ;}
	.st3{opacity:8.000000e-02;fill-rule:evenodd;clip-rule:evenodd;fill:#37B2F4;enable-background:new    ;}
	.st4{opacity:0.22;fill-rule:evenodd;clip-rule:evenodd;fill:#A6B3BC;enable-background:new    ;}
	.st5{fill-rule:evenodd;clip-rule:evenodd;fill:#3F424F;}
	.st6{opacity:0.22;fill-rule:evenodd;clip-rule:evenodd;fill:#37B2F4;enable-background:new    ;}
	.st7{fill-rule:evenodd;clip-rule:evenodd;fill:#37B2F4;}
	.st8{fill-rule:evenodd;clip-rule:evenodd;fill:#FFFFFF;}
	.st9{fill:none;}
</style>
<path class="st0" d="M161.2,131.5l7-14h-14L161.2,131.5z M160.2,100v19.5h2V99h-2V100z M261.2,131.5l7-14h-14L261.2,131.5z
	 M260.2,100v19.5h2V99h-2V100z"/>
<path class="st1" d="M108,0h204v54H108V0z"/>
<path class="st2" d="M108,54h204v54H108V54z"/>
<path class="st3" d="M134,186h153v192H134V186z"/>
<path class="st4" d="M116,62h91v38h-91V62z"/>
<path class="st5" d="M151.6,86h-1.5v-9.2h1.5V86L151.6,86z M153.7,86v-9.2h3.1c1,0,1.8,0.2,2.4,0.6c0.6,0.4,0.9,1.1,0.9,1.9
	c0,0.4-0.1,0.8-0.4,1.1c-0.2,0.3-0.6,0.6-1,0.7c0.6,0.1,1,0.4,1.3,0.8s0.4,0.9,0.4,1.4c0,0.9-0.3,1.5-0.9,2
	c-0.6,0.4-1.4,0.7-2.4,0.7H153.7z M155.3,81.8v3h1.9c0.5,0,0.9-0.1,1.2-0.4c0.3-0.2,0.4-0.6,0.4-1.1s-0.1-0.9-0.4-1.1
	c-0.2-0.3-0.6-0.4-1.1-0.4C157.4,81.8,155.3,81.8,155.3,81.8z M155.3,80.6h1.7c0.5,0,0.9-0.1,1.1-0.3c0.3-0.2,0.4-0.5,0.4-1
	s-0.1-0.8-0.4-1c-0.3-0.2-0.7-0.3-1.3-0.3h-1.5V80.6L155.3,80.6z M167.1,83.6c0-0.4-0.1-0.7-0.4-0.9c-0.3-0.2-0.8-0.5-1.5-0.7
	c-1-0.3-1.8-0.6-2.4-1.1c-0.6-0.4-0.8-1-0.8-1.8c0-0.7,0.3-1.4,0.9-1.8c0.6-0.5,1.4-0.7,2.4-0.7s1.8,0.3,2.4,0.8
	c0.6,0.5,0.9,1.2,0.9,2l0,0h-1.5c0-0.5-0.2-0.9-0.5-1.2c-0.3-0.3-0.8-0.4-1.4-0.4c-0.6,0-1,0.1-1.3,0.4c-0.3,0.2-0.5,0.6-0.5,1
	s0.2,0.6,0.5,0.9s0.9,0.5,1.6,0.7c1,0.3,1.8,0.6,2.3,1.1s0.8,1.1,0.8,1.8c0,0.8-0.3,1.4-0.9,1.8c-0.6,0.5-1.4,0.7-2.4,0.7
	s-1.8-0.3-2.5-0.8s-1.1-1.2-1.1-2.1l0,0h1.5c0,0.6,0.2,1,0.6,1.3c0.4,0.3,0.9,0.4,1.5,0.4s1-0.1,1.3-0.3
	C166.9,84.3,167.1,84,167.1,83.6L167.1,83.6z"/>
<path class="st6" d="M143,194h136v38H143V194z"/>
<path class="st5" d="M183.6,217c0-0.1-0.1-0.3-0.1-0.4c0-0.1,0-0.3-0.1-0.4c-0.2,0.3-0.4,0.5-0.6,0.6c-0.3,0.2-0.6,0.3-0.9,0.3
	c-0.6,0-1-0.1-1.3-0.4c-0.3-0.3-0.4-0.7-0.4-1.2s0.2-0.9,0.6-1.2c0.4-0.3,1-0.4,1.7-0.4h0.9v-0.5c0-0.3-0.1-0.5-0.2-0.6
	c-0.2-0.2-0.4-0.2-0.7-0.2s-0.5,0.1-0.6,0.2c-0.2,0.1-0.2,0.3-0.2,0.5h-1.1l0,0c0-0.4,0.2-0.8,0.6-1.1c0.4-0.3,0.9-0.5,1.5-0.5
	s1.1,0.2,1.5,0.5s0.6,0.8,0.6,1.3v2.3c0,0.2,0,0.4,0,0.6c0,0.2,0.1,0.4,0.1,0.6L183.6,217L183.6,217z M182.2,216.1
	c0.3,0,0.6-0.1,0.8-0.2c0.2-0.1,0.4-0.3,0.5-0.5v-0.8h-0.9c-0.3,0-0.6,0.1-0.8,0.3s-0.3,0.4-0.3,0.6c0,0.2,0.1,0.4,0.2,0.5
	C181.8,216.1,181.9,216.1,182.2,216.1L182.2,216.1z M187.2,217H186v-1.1h1.2V217L187.2,217z M193.6,215.1l0.1,0.5l0,0l0.1-0.5
	l1.7-5.3h1.3l-2.5,7.1h-1.1l-2.5-7.1h1.3L193.6,215.1L193.6,215.1z M199.8,217.1c-0.7,0-1.3-0.2-1.8-0.7c-0.4-0.5-0.7-1.1-0.7-1.9
	v-0.2c0-0.8,0.2-1.4,0.7-1.9c0.4-0.5,1-0.8,1.7-0.8s1.3,0.2,1.6,0.6c0.4,0.4,0.6,1,0.6,1.7v0.7h-3.3l0,0c0,0.4,0.1,0.8,0.4,1
	c0.2,0.3,0.5,0.4,0.9,0.4c0.3,0,0.6,0,0.8-0.1s0.4-0.2,0.7-0.3l0.4,0.8c-0.2,0.2-0.5,0.3-0.8,0.4C200.6,217,200.2,217.1,199.8,217.1
	L199.8,217.1z M199.7,212.6c-0.3,0-0.6,0.1-0.7,0.4c-0.2,0.2-0.3,0.5-0.4,0.9l0,0h2.1v-0.1c0-0.3-0.1-0.6-0.3-0.8
	C200.3,212.7,200,212.6,199.7,212.6L199.7,212.6z M205.5,212.8H205c-0.2,0-0.4,0.1-0.6,0.1c-0.2,0.1-0.3,0.2-0.4,0.4v3.7h-1.2v-5.3
	h1.1l0.1,0.8c0.1-0.3,0.3-0.5,0.5-0.6c0.2-0.2,0.5-0.2,0.7-0.2c0.1,0,0.1,0,0.2,0c0.1,0,0.1,0,0.2,0L205.5,212.8L205.5,212.8z
	 M207.6,217h-1.2v-5.3h1.2V217z M207.6,210.4h-1.2v-1h1.2V210.4z M209.2,217v-4.4h-0.8v-0.9h0.8v-0.4c0-0.6,0.2-1.1,0.6-1.5
	c0.4-0.3,0.9-0.5,1.6-0.5c0.2,0,0.5,0,0.7,0.1s0.5,0.1,0.8,0.2l-0.2,1c-0.2-0.1-0.4-0.1-0.6-0.2c-0.2,0-0.4-0.1-0.6-0.1
	c-0.4,0-0.6,0.1-0.8,0.2c-0.2,0.2-0.2,0.4-0.2,0.7v0.4h1v0.9h-1v4.4h-1.3V217z M213.4,217h-1.2v-5.3h1.2V217L213.4,217z
	 M216.9,216.2c0.3,0,0.5-0.1,0.7-0.3s0.3-0.4,0.3-0.6h1.1l0,0c0,0.5-0.2,0.9-0.6,1.3c-0.4,0.4-0.9,0.5-1.5,0.5
	c-0.8,0-1.4-0.3-1.8-0.8c-0.4-0.5-0.6-1.1-0.6-1.9v-0.2c0-0.8,0.2-1.4,0.6-1.9c0.4-0.5,1-0.8,1.8-0.8c0.6,0,1.1,0.2,1.5,0.6
	c0.4,0.4,0.6,0.8,0.6,1.4l0,0h-1.1c0-0.3-0.1-0.5-0.3-0.7s-0.4-0.3-0.7-0.3c-0.4,0-0.8,0.2-0.9,0.5c-0.2,0.3-0.3,0.7-0.3,1.2v0.2
	c0,0.5,0.1,0.9,0.3,1.2C216.1,216,216.4,216.2,216.9,216.2L216.9,216.2z M223.1,217c0-0.1-0.1-0.3-0.1-0.4c0-0.1,0-0.3-0.1-0.4
	c-0.2,0.3-0.4,0.5-0.6,0.6c-0.3,0.2-0.6,0.3-0.9,0.3c-0.6,0-1-0.1-1.3-0.4c-0.3-0.3-0.4-0.7-0.4-1.2s0.2-0.9,0.6-1.2
	c0.4-0.3,1-0.4,1.7-0.4h0.9v-0.5c0-0.3-0.1-0.5-0.2-0.6c-0.2-0.2-0.4-0.2-0.7-0.2s-0.5,0.1-0.6,0.2c-0.2,0.1-0.2,0.3-0.2,0.5H220
	l0,0c0-0.4,0.2-0.8,0.6-1.1c0.4-0.3,0.9-0.5,1.5-0.5s1.1,0.2,1.5,0.5s0.6,0.8,0.6,1.3v2.3c0,0.2,0,0.4,0,0.6c0,0.2,0.1,0.4,0.1,0.6
	L223.1,217L223.1,217z M221.7,216.1c0.3,0,0.6-0.1,0.8-0.2c0.2-0.1,0.4-0.3,0.5-0.5v-0.8h-1c-0.3,0-0.6,0.1-0.8,0.3
	s-0.3,0.4-0.3,0.6c0,0.2,0.1,0.4,0.2,0.5S221.4,216.1,221.7,216.1L221.7,216.1z M226.9,210.4v1.3h0.9v0.9h-0.9v2.9
	c0,0.2,0,0.4,0.1,0.5s0.2,0.1,0.4,0.1c0.1,0,0.2,0,0.4-0.1l0.1,0.9c-0.1,0.1-0.2,0.1-0.4,0.1c-0.1,0-0.3,0-0.4,0
	c-0.4,0-0.8-0.1-1-0.4c-0.2-0.3-0.4-0.7-0.4-1.2v-2.9h-0.8v-0.9h0.8v-1.3L226.9,210.4L226.9,210.4z M230.1,217h-1.2v-5.3h1.2V217z
	 M230.1,210.4h-1.2v-1h1.2V210.4z M231.2,214.3c0-0.8,0.2-1.4,0.6-1.9c0.4-0.5,1-0.8,1.8-0.8s1.4,0.3,1.8,0.8
	c0.4,0.5,0.6,1.1,0.6,1.9v0.1c0,0.8-0.2,1.4-0.6,1.9c-0.4,0.5-1,0.7-1.8,0.7s-1.4-0.3-1.8-0.8C231.4,215.7,231.2,215.1,231.2,214.3
	L231.2,214.3z M232.4,214.4c0,0.5,0.1,0.9,0.3,1.3c0.2,0.3,0.5,0.5,0.9,0.5s0.7-0.2,0.9-0.5s0.3-0.7,0.3-1.3v-0.1
	c0-0.5-0.1-0.9-0.3-1.2s-0.5-0.5-0.9-0.5s-0.7,0.2-0.9,0.5s-0.3,0.7-0.3,1.2V214.4L232.4,214.4z M238.2,211.7l0.1,0.8
	c0.2-0.3,0.4-0.5,0.7-0.6c0.3-0.2,0.6-0.2,0.9-0.2c0.6,0,1,0.2,1.3,0.5s0.5,0.9,0.5,1.6v3.3h-1.2v-3.3c0-0.4-0.1-0.7-0.2-0.8
	c-0.2-0.2-0.4-0.3-0.8-0.3c-0.4,0-0.8,0.2-1.1,0.6v3.8h-1.2v-5.3h1V211.7z"/>
<path class="st6" d="M143,240h136v38H143V240z"/>
<path class="st5" d="M171.9,260.5c0,0.8-0.2,1.4-0.5,1.9c-0.4,0.5-0.9,0.7-1.5,0.7c-0.3,0-0.6-0.1-0.9-0.2c-0.2-0.1-0.5-0.3-0.6-0.6
	l-0.1,0.7h-1v-7.6h1.2v2.9c0.2-0.2,0.4-0.4,0.6-0.5s0.5-0.2,0.8-0.2c0.7,0,1.2,0.3,1.5,0.8c0.4,0.5,0.5,1.2,0.5,2V260.5L171.9,260.5
	z M170.7,260.4c0-0.5-0.1-1-0.3-1.3s-0.5-0.5-0.9-0.5c-0.3,0-0.5,0.1-0.7,0.2s-0.3,0.3-0.4,0.5v2.2c0.1,0.2,0.2,0.4,0.4,0.5
	s0.4,0.2,0.7,0.2c0.4,0,0.7-0.1,0.9-0.4s0.3-0.7,0.3-1.2V260.4z M174.2,263H173v-1.1h1.2V263z M179.5,260v3h-1.2v-7.1h2.6
	c0.8,0,1.4,0.2,1.8,0.5s0.6,0.9,0.6,1.5c0,0.4-0.1,0.7-0.3,1s-0.5,0.5-0.8,0.6c0.4,0.1,0.7,0.3,0.9,0.6c0.2,0.3,0.3,0.6,0.3,1.1v0.6
	c0,0.2,0,0.4,0.1,0.6s0.1,0.4,0.3,0.5v0.1h-1.2c-0.1-0.1-0.2-0.3-0.3-0.5c0-0.2-0.1-0.5-0.1-0.7v-0.6c0-0.4-0.1-0.7-0.3-0.9
	c-0.2-0.2-0.5-0.3-0.9-0.3L179.5,260L179.5,260z M179.5,259.1h1.4c0.5,0,0.8-0.1,1-0.3c0.2-0.2,0.3-0.5,0.3-0.8
	c0-0.4-0.1-0.6-0.3-0.8c-0.2-0.2-0.5-0.3-1-0.3h-1.4V259.1L179.5,259.1z M186.1,263h-1.2v-5.3h1.2V263z M186.1,256.4h-1.2v-1h1.2
	V256.4z M190.4,261.6c0-0.2-0.1-0.4-0.2-0.5c-0.2-0.1-0.4-0.2-0.9-0.3c-0.6-0.1-1.1-0.3-1.4-0.6c-0.3-0.2-0.5-0.6-0.5-1
	s0.2-0.8,0.6-1.1c0.4-0.3,0.9-0.5,1.5-0.5s1.2,0.2,1.5,0.5c0.4,0.3,0.6,0.7,0.5,1.2l0,0h-1.1c0-0.2-0.1-0.4-0.2-0.6
	c-0.2-0.2-0.4-0.2-0.7-0.2s-0.5,0.1-0.7,0.2c-0.1,0.1-0.2,0.3-0.2,0.5s0.1,0.3,0.2,0.4c0.1,0.1,0.4,0.2,0.9,0.3
	c0.7,0.1,1.2,0.3,1.5,0.6c0.3,0.2,0.5,0.6,0.5,1c0,0.5-0.2,0.9-0.6,1.2c-0.4,0.3-0.9,0.4-1.6,0.4c-0.7,0-1.2-0.2-1.6-0.5
	c-0.4-0.4-0.6-0.8-0.6-1.2l0,0h1.1c0,0.3,0.1,0.5,0.3,0.7c0.2,0.1,0.5,0.2,0.8,0.2s0.5-0.1,0.7-0.2
	C190.3,261.9,190.4,261.8,190.4,261.6L190.4,261.6z M194.3,260.7h-0.5v2.3h-1.2v-7.6h1.2v4.4h0.5l1.3-2h1.4l-1.7,2.4l2,2.9h-1.4
	L194.3,260.7L194.3,260.7z M204.3,261.3h-2.8L201,263h-1.2l2.6-7.1h1.1l2.6,7.1h-1.2L204.3,261.3z M201.9,260.3h2.1l-1-3l0,0
	L201.9,260.3L201.9,260.3z M209.7,261.6c0-0.2-0.1-0.4-0.2-0.5c-0.2-0.1-0.4-0.2-0.9-0.3c-0.6-0.1-1.1-0.3-1.4-0.6s-0.5-0.6-0.5-1
	s0.2-0.8,0.6-1.1c0.4-0.3,0.9-0.5,1.5-0.5s1.2,0.2,1.5,0.5c0.4,0.3,0.6,0.7,0.5,1.2l0,0h-1.1c0-0.2-0.1-0.4-0.2-0.6
	c-0.2-0.2-0.4-0.2-0.7-0.2s-0.5,0.1-0.7,0.2c-0.1,0.1-0.2,0.3-0.2,0.5s0.1,0.3,0.2,0.4c0.1,0.1,0.4,0.2,0.9,0.3
	c0.7,0.1,1.2,0.3,1.5,0.6c0.3,0.2,0.5,0.6,0.5,1c0,0.5-0.2,0.9-0.6,1.2c-0.4,0.3-0.9,0.4-1.6,0.4c-0.7,0-1.2-0.2-1.6-0.5
	c-0.4-0.4-0.6-0.8-0.6-1.2l0,0h1.1c0,0.3,0.1,0.5,0.3,0.7c0.2,0.1,0.5,0.2,0.8,0.2s0.5-0.1,0.7-0.2
	C209.7,261.9,209.8,261.8,209.7,261.6L209.7,261.6z M214.9,261.6c0-0.2-0.1-0.4-0.2-0.5c-0.2-0.1-0.4-0.2-0.9-0.3
	c-0.6-0.1-1.1-0.3-1.4-0.6s-0.5-0.6-0.5-1s0.2-0.8,0.6-1.1s0.9-0.5,1.5-0.5s1.2,0.2,1.5,0.5c0.4,0.3,0.6,0.7,0.5,1.2l0,0h-1.1
	c0-0.2-0.1-0.4-0.2-0.6c-0.2-0.2-0.4-0.2-0.7-0.2s-0.5,0.1-0.7,0.2c-0.1,0.1-0.2,0.3-0.2,0.5s0.1,0.3,0.2,0.4
	c0.1,0.1,0.4,0.2,0.9,0.3c0.7,0.1,1.2,0.3,1.5,0.6c0.3,0.2,0.5,0.6,0.5,1c0,0.5-0.2,0.9-0.6,1.2c-0.4,0.3-0.9,0.4-1.6,0.4
	c-0.7,0-1.2-0.2-1.6-0.5c-0.4-0.4-0.6-0.8-0.6-1.2l0,0h1.1c0,0.3,0.1,0.5,0.3,0.7c0.2,0.1,0.5,0.2,0.8,0.2s0.5-0.1,0.7-0.2
	C214.9,261.9,215,261.8,214.9,261.6L214.9,261.6z M219.4,263.1c-0.7,0-1.3-0.2-1.8-0.7c-0.4-0.5-0.7-1.1-0.7-1.9v-0.2
	c0-0.8,0.2-1.4,0.7-1.9c0.4-0.5,1-0.8,1.7-0.8s1.3,0.2,1.6,0.6c0.4,0.4,0.6,1,0.6,1.7v0.7h-3.3l0,0c0,0.4,0.1,0.8,0.4,1
	c0.2,0.3,0.5,0.4,0.9,0.4c0.3,0,0.6,0,0.8-0.1s0.4-0.2,0.7-0.3l0.4,0.8c-0.2,0.2-0.5,0.3-0.8,0.4C220.3,263,219.9,263.1,219.4,263.1
	L219.4,263.1z M219.3,258.6c-0.3,0-0.6,0.1-0.7,0.4c-0.2,0.2-0.3,0.5-0.4,0.9l0,0h2.1v-0.1c0-0.3-0.1-0.6-0.3-0.8
	C219.9,258.7,219.7,258.6,219.3,258.6L219.3,258.6z M225.4,261.6c0-0.2-0.1-0.4-0.2-0.5c-0.2-0.1-0.4-0.2-0.9-0.3
	c-0.6-0.1-1.1-0.3-1.4-0.6c-0.3-0.2-0.5-0.6-0.5-1s0.2-0.8,0.6-1.1c0.4-0.3,0.9-0.5,1.5-0.5s1.2,0.2,1.5,0.5
	c0.4,0.3,0.6,0.7,0.5,1.2l0,0h-1.1c0-0.2-0.1-0.4-0.2-0.6c-0.2-0.2-0.4-0.2-0.7-0.2s-0.5,0.1-0.7,0.2c-0.1,0.1-0.2,0.3-0.2,0.5
	s0.1,0.3,0.2,0.4c0.1,0.1,0.4,0.2,0.9,0.3c0.7,0.1,1.2,0.3,1.5,0.6c0.3,0.2,0.5,0.6,0.5,1c0,0.5-0.2,0.9-0.6,1.2
	c-0.4,0.3-0.9,0.4-1.6,0.4c-0.7,0-1.2-0.2-1.6-0.5c-0.4-0.4-0.6-0.8-0.6-1.2l0,0h1.1c0,0.3,0.1,0.5,0.3,0.7c0.2,0.1,0.5,0.2,0.8,0.2
	s0.5-0.1,0.7-0.2C225.4,261.9,225.4,261.8,225.4,261.6L225.4,261.6z M230.6,261.6c0-0.2-0.1-0.4-0.2-0.5c-0.2-0.1-0.4-0.2-0.9-0.3
	c-0.6-0.1-1.1-0.3-1.4-0.6c-0.3-0.2-0.5-0.6-0.5-1s0.2-0.8,0.6-1.1c0.4-0.3,0.9-0.5,1.5-0.5s1.2,0.2,1.5,0.5
	c0.4,0.3,0.6,0.7,0.5,1.2l0,0h-1.1c0-0.2-0.1-0.4-0.2-0.6c-0.2-0.2-0.4-0.2-0.7-0.2s-0.5,0.1-0.7,0.2c-0.1,0.1-0.2,0.3-0.2,0.5
	s0.1,0.3,0.2,0.4c0.1,0.1,0.4,0.2,0.9,0.3c0.7,0.1,1.2,0.3,1.5,0.6c0.3,0.2,0.5,0.6,0.5,1c0,0.5-0.2,0.9-0.6,1.2
	c-0.4,0.3-0.9,0.4-1.6,0.4c-0.7,0-1.2-0.2-1.6-0.5c-0.4-0.4-0.6-0.8-0.6-1.2l0,0h1.1c0,0.3,0.1,0.5,0.3,0.7c0.2,0.1,0.5,0.2,0.8,0.2
	s0.5-0.1,0.7-0.2C230.6,261.9,230.6,261.8,230.6,261.6L230.6,261.6z M234,257.7l0.1,0.7c0.2-0.2,0.4-0.4,0.6-0.6
	c0.3-0.1,0.6-0.2,0.9-0.2c0.3,0,0.6,0.1,0.9,0.2c0.2,0.2,0.4,0.4,0.6,0.7c0.2-0.3,0.4-0.5,0.6-0.7s0.6-0.2,0.9-0.2
	c0.5,0,0.9,0.2,1.3,0.5c0.3,0.4,0.5,0.9,0.5,1.7v3.2h-1.2v-3.2c0-0.5-0.1-0.8-0.2-0.9c-0.2-0.2-0.4-0.3-0.7-0.3s-0.5,0.1-0.6,0.2
	c-0.2,0.1-0.3,0.3-0.4,0.6v0.1v0.1v3.4H236v-3.2c0-0.4-0.1-0.7-0.2-0.9c-0.2-0.2-0.4-0.3-0.7-0.3c-0.2,0-0.4,0-0.6,0.1
	c-0.2,0.1-0.3,0.2-0.4,0.4v3.9h-1.2v-5.3L234,257.7L234,257.7z M243.8,263.1c-0.7,0-1.3-0.2-1.8-0.7c-0.4-0.5-0.7-1.1-0.7-1.9v-0.2
	c0-0.8,0.2-1.4,0.7-1.9c0.4-0.5,1-0.8,1.7-0.8s1.3,0.2,1.6,0.6c0.4,0.4,0.6,1,0.6,1.7v0.7h-3.3l0,0c0,0.4,0.1,0.8,0.4,1
	s0.5,0.4,0.9,0.4c0.3,0,0.6,0,0.8-0.1s0.4-0.2,0.7-0.3l0.4,0.8c-0.2,0.2-0.5,0.3-0.8,0.4C244.6,263,244.3,263.1,243.8,263.1
	L243.8,263.1z M243.7,258.6c-0.3,0-0.6,0.1-0.7,0.4c-0.2,0.2-0.3,0.5-0.4,0.9l0,0h2.1v-0.1c0-0.3-0.1-0.6-0.3-0.8
	C244.3,258.7,244,258.6,243.7,258.6L243.7,258.6z M247.9,257.7l0.1,0.8c0.2-0.3,0.4-0.5,0.7-0.6c0.3-0.2,0.6-0.2,0.9-0.2
	c0.6,0,1,0.2,1.3,0.5s0.5,0.9,0.5,1.6v3.3h-1.2v-3.3c0-0.4-0.1-0.7-0.2-0.8c-0.2-0.2-0.4-0.3-0.8-0.3c-0.4,0-0.8,0.2-1.1,0.6v3.8
	h-1.2v-5.3L247.9,257.7L247.9,257.7z M254,256.4v1.3h0.9v0.9H254v2.9c0,0.2,0,0.4,0.1,0.5s0.2,0.1,0.4,0.1c0.1,0,0.2,0,0.4-0.1
	l0.1,0.9c-0.1,0.1-0.2,0.1-0.4,0.1c-0.1,0-0.3,0-0.4,0c-0.4,0-0.8-0.1-1-0.4s-0.4-0.7-0.4-1.2v-2.9H252v-0.9h0.8v-1.3h1.2V256.4z"/>
<path class="st6" d="M143,286h136v38H143V286z"/>
<path class="st5" d="M160.3,308.2c0.3,0,0.5-0.1,0.7-0.3c0.2-0.2,0.3-0.4,0.3-0.6h1.1l0,0c0,0.5-0.2,0.9-0.6,1.3
	c-0.4,0.4-0.9,0.5-1.5,0.5c-0.8,0-1.4-0.3-1.8-0.8c-0.4-0.5-0.6-1.1-0.6-1.9v-0.2c0-0.8,0.2-1.4,0.6-1.9c0.4-0.5,1-0.8,1.8-0.8
	c0.6,0,1.1,0.2,1.5,0.6s0.6,0.8,0.6,1.4l0,0h-1.1c0-0.3-0.1-0.5-0.3-0.7s-0.4-0.3-0.7-0.3c-0.4,0-0.8,0.2-0.9,0.5
	c-0.2,0.3-0.3,0.7-0.3,1.2v0.2c0,0.5,0.1,0.9,0.3,1.2C159.5,308,159.9,308.2,160.3,308.2L160.3,308.2z M164.7,309h-1.2v-1.1h1.2V309
	z M170,306v3h-1.2v-7.1h2.6c0.8,0,1.4,0.2,1.8,0.5c0.4,0.4,0.6,0.9,0.6,1.5c0,0.4-0.1,0.7-0.3,1s-0.5,0.5-0.8,0.6
	c0.4,0.1,0.7,0.3,0.9,0.6s0.3,0.6,0.3,1.1v0.6c0,0.2,0,0.4,0.1,0.6s0.1,0.4,0.3,0.5v0.1h-1.2c-0.1-0.1-0.2-0.3-0.3-0.5
	c0-0.2-0.1-0.5-0.1-0.7v-0.6c0-0.4-0.1-0.7-0.3-0.9c-0.2-0.2-0.5-0.3-0.9-0.3L170,306L170,306z M170,305.1h1.4c0.5,0,0.8-0.1,1-0.3
	c0.2-0.2,0.3-0.5,0.3-0.8c0-0.4-0.1-0.6-0.3-0.8c-0.2-0.2-0.5-0.3-1-0.3H170V305.1L170,305.1z M176.5,309h-1.2v-5.3h1.2V309z
	 M176.5,302.4h-1.2v-1h1.2V302.4z M180.8,307.6c0-0.2-0.1-0.4-0.2-0.5c-0.2-0.1-0.4-0.2-0.9-0.3c-0.6-0.1-1.1-0.3-1.4-0.6
	c-0.3-0.2-0.5-0.6-0.5-1s0.2-0.8,0.6-1.1c0.4-0.3,0.9-0.5,1.5-0.5s1.2,0.2,1.5,0.5c0.4,0.3,0.6,0.7,0.5,1.2l0,0h-1.1
	c0-0.2-0.1-0.4-0.2-0.6c-0.2-0.2-0.4-0.2-0.7-0.2s-0.5,0.1-0.7,0.2c-0.1,0.1-0.2,0.3-0.2,0.5s0.1,0.3,0.2,0.4
	c0.1,0.1,0.4,0.2,0.9,0.3c0.7,0.1,1.2,0.3,1.5,0.6c0.3,0.2,0.5,0.6,0.5,1c0,0.5-0.2,0.9-0.6,1.2c-0.4,0.3-0.9,0.4-1.6,0.4
	c-0.7,0-1.2-0.2-1.6-0.5c-0.4-0.4-0.6-0.8-0.6-1.2l0,0h1.1c0,0.3,0.1,0.5,0.3,0.7c0.2,0.1,0.5,0.2,0.8,0.2s0.5-0.1,0.7-0.2
	C180.7,307.9,180.8,307.8,180.8,307.6L180.8,307.6z M184.8,306.7h-0.5v2.3h-1.2v-7.6h1.2v4.4h0.5l1.3-2h1.4l-1.7,2.4l2,2.9h-1.4
	L184.8,306.7L184.8,306.7z M196.1,306.6L196.1,306.6c0,0.7-0.2,1.3-0.7,1.8s-1.1,0.7-1.9,0.7c-0.8,0-1.5-0.3-2-0.8
	c-0.5-0.6-0.8-1.3-0.8-2.1v-1.4c0-0.9,0.3-1.6,0.8-2.1c0.5-0.6,1.2-0.8,2-0.8s1.5,0.2,2,0.7c0.5,0.4,0.7,1,0.7,1.8l0,0H195
	c0-0.5-0.1-0.9-0.4-1.1s-0.6-0.4-1.1-0.4s-0.9,0.2-1.2,0.6s-0.4,0.9-0.4,1.4v1.4c0,0.6,0.1,1.1,0.4,1.5c0.3,0.4,0.7,0.6,1.2,0.6
	s0.9-0.1,1.1-0.4c0.3-0.3,0.4-0.6,0.4-1.1L196.1,306.6L196.1,306.6z M198.3,304.4c0.2-0.2,0.4-0.4,0.6-0.6c0.3-0.1,0.5-0.2,0.8-0.2
	c0.6,0,1,0.2,1.3,0.5c0.3,0.4,0.5,0.9,0.5,1.6v3.2h-1.2v-3.2c0-0.4-0.1-0.7-0.2-0.9c-0.2-0.2-0.4-0.3-0.7-0.3
	c-0.4,0-0.8,0.2-1.1,0.5v3.9h-1.2v-7.6h1.2L198.3,304.4L198.3,304.4z M206,309c0-0.1-0.1-0.3-0.1-0.4s0-0.3-0.1-0.4
	c-0.2,0.3-0.4,0.5-0.6,0.6c-0.3,0.2-0.6,0.3-0.9,0.3c-0.6,0-1-0.1-1.3-0.4s-0.4-0.7-0.4-1.2s0.2-0.9,0.6-1.2c0.4-0.3,1-0.4,1.7-0.4
	h0.9v-0.5c0-0.3-0.1-0.5-0.2-0.6c-0.2-0.2-0.4-0.2-0.7-0.2s-0.5,0.1-0.6,0.2c-0.2,0.1-0.2,0.3-0.2,0.5H203l0,0
	c0-0.4,0.2-0.8,0.6-1.1c0.4-0.3,0.9-0.5,1.5-0.5s1.1,0.2,1.5,0.5s0.6,0.8,0.6,1.3v2.3c0,0.2,0,0.4,0,0.6s0.1,0.4,0.1,0.6L206,309
	L206,309z M204.5,308.1c0.3,0,0.6-0.1,0.8-0.2s0.4-0.3,0.5-0.5v-0.8h-0.9c-0.3,0-0.6,0.1-0.8,0.3c-0.2,0.2-0.3,0.4-0.3,0.6
	s0.1,0.4,0.2,0.5S204.3,308.1,204.5,308.1L204.5,308.1z M210.9,304.8h-0.5c-0.2,0-0.4,0-0.6,0.1c-0.2,0.1-0.3,0.2-0.4,0.4v3.7h-1.2
	v-5.3h1.1l0.1,0.8c0.1-0.3,0.3-0.5,0.5-0.6c0.2-0.2,0.5-0.2,0.7-0.2c0.1,0,0.1,0,0.2,0c0.1,0,0.1,0,0.2,0L210.9,304.8L210.9,304.8z
	 M214.9,309c0-0.1-0.1-0.3-0.1-0.4s0-0.3-0.1-0.4c-0.2,0.3-0.4,0.5-0.6,0.6c-0.3,0.2-0.6,0.3-0.9,0.3c-0.6,0-1-0.1-1.3-0.4
	s-0.4-0.7-0.4-1.2s0.2-0.9,0.6-1.2c0.4-0.3,1-0.4,1.7-0.4h0.9v-0.5c0-0.3-0.1-0.5-0.2-0.6c-0.2-0.2-0.4-0.2-0.7-0.2
	s-0.5,0.1-0.6,0.2c-0.2,0.1-0.2,0.3-0.2,0.5h-1.1l0,0c0-0.4,0.2-0.8,0.6-1.1c0.4-0.3,0.9-0.5,1.5-0.5s1.1,0.2,1.5,0.5
	s0.6,0.8,0.6,1.3v2.3c0,0.2,0,0.4,0,0.6s0.1,0.4,0.1,0.6L214.9,309L214.9,309z M213.4,308.1c0.3,0,0.6-0.1,0.8-0.2s0.4-0.3,0.5-0.5
	v-0.8h-0.9c-0.3,0-0.6,0.1-0.8,0.3c-0.2,0.2-0.3,0.4-0.3,0.6s0.1,0.4,0.2,0.5C213,308.1,213.2,308.1,213.4,308.1z M219.3,308.2
	c0.3,0,0.5-0.1,0.7-0.3c0.2-0.2,0.3-0.4,0.3-0.6h1.1l0,0c0,0.5-0.2,0.9-0.6,1.3c-0.4,0.4-0.9,0.5-1.5,0.5c-0.8,0-1.4-0.3-1.8-0.8
	c-0.4-0.5-0.6-1.1-0.6-1.9v-0.2c0-0.8,0.2-1.4,0.6-1.9c0.4-0.5,1-0.8,1.8-0.8c0.6,0,1.1,0.2,1.5,0.6s0.6,0.8,0.6,1.4l0,0h-1.1
	c0-0.3-0.1-0.5-0.3-0.7s-0.4-0.3-0.7-0.3c-0.4,0-0.8,0.2-0.9,0.5c-0.2,0.3-0.3,0.7-0.3,1.2v0.2c0,0.5,0.1,0.9,0.3,1.2
	C218.6,308,218.9,308.2,219.3,308.2L219.3,308.2z M223.9,302.4v1.3h0.9v0.9h-0.9v2.9c0,0.2,0,0.4,0.1,0.5s0.2,0.1,0.4,0.1
	c0.1,0,0.2,0,0.4-0.1l0.1,0.9c-0.1,0.1-0.2,0.1-0.4,0.1c-0.1,0-0.3,0-0.4,0c-0.4,0-0.8-0.1-1-0.4s-0.4-0.7-0.4-1.2v-2.9h-0.8v-0.9
	h0.8v-1.3h1.2V302.4z M228.1,309.1c-0.8,0-1.3-0.2-1.8-0.7s-0.7-1.1-0.7-1.9v-0.2c0-0.8,0.2-1.4,0.7-1.9c0.4-0.5,1-0.8,1.7-0.8
	s1.3,0.2,1.6,0.6c0.4,0.4,0.6,1,0.6,1.7v0.7h-3.3l0,0c0,0.4,0.1,0.8,0.4,1s0.5,0.4,0.9,0.4c0.3,0,0.6,0,0.8-0.1s0.4-0.2,0.7-0.3
	l0.4,0.8c-0.2,0.2-0.5,0.3-0.8,0.4C229,309,228.6,309.1,228.1,309.1L228.1,309.1z M228,304.6c-0.3,0-0.6,0.1-0.7,0.4
	c-0.2,0.2-0.3,0.5-0.4,0.9l0,0h2.1v-0.1c0-0.3-0.1-0.6-0.3-0.8C228.6,304.7,228.4,304.6,228,304.6L228,304.6z M233.8,304.8h-0.5
	c-0.2,0-0.4,0-0.6,0.1c-0.2,0.1-0.3,0.2-0.4,0.4v3.7h-1.2v-5.3h1.1l0.1,0.8c0.1-0.3,0.3-0.5,0.5-0.6c0.2-0.2,0.5-0.2,0.7-0.2
	c0.1,0,0.1,0,0.2,0c0.1,0,0.1,0,0.2,0L233.8,304.8L233.8,304.8z M235.9,309h-1.2v-5.3h1.2V309L235.9,309z M235.9,302.4h-1.2v-1h1.2
	V302.4z M238.5,308.1h2.8v0.9H237v-0.8l2.7-3.5h-2.6v-1h4.1v0.8L238.5,308.1L238.5,308.1z M245.5,309c0-0.1-0.1-0.3-0.1-0.4
	s0-0.3-0.1-0.4c-0.2,0.3-0.4,0.5-0.6,0.6c-0.3,0.2-0.6,0.3-0.9,0.3c-0.6,0-1-0.1-1.3-0.4s-0.4-0.7-0.4-1.2s0.2-0.9,0.6-1.2
	c0.4-0.3,1-0.4,1.7-0.4h0.9v-0.5c0-0.3-0.1-0.5-0.2-0.6c-0.2-0.2-0.4-0.2-0.7-0.2s-0.5,0.1-0.6,0.2c-0.2,0.1-0.2,0.3-0.2,0.5h-1.1
	l0,0c0-0.4,0.2-0.8,0.6-1.1c0.4-0.3,0.9-0.5,1.5-0.5s1.1,0.2,1.5,0.5s0.6,0.8,0.6,1.3v2.3c0,0.2,0,0.4,0,0.6s0.1,0.4,0.1,0.6
	L245.5,309L245.5,309z M244,308.1c0.3,0,0.6-0.1,0.8-0.2s0.4-0.3,0.5-0.5v-0.8h-0.9c-0.3,0-0.6,0.1-0.8,0.3
	c-0.2,0.2-0.3,0.4-0.3,0.6s0.1,0.4,0.2,0.5C243.6,308.1,243.8,308.1,244,308.1z M249.2,302.4v1.3h0.9v0.9h-0.9v2.9
	c0,0.2,0,0.4,0.1,0.5s0.2,0.1,0.4,0.1c0.1,0,0.2,0,0.4-0.1l0.1,0.9c-0.1,0.1-0.2,0.1-0.4,0.1c-0.1,0-0.3,0-0.4,0
	c-0.4,0-0.8-0.1-1-0.4s-0.4-0.7-0.4-1.2v-2.9h-0.8v-0.9h0.8v-1.3h1.2V302.4z M252.5,309h-1.2v-5.3h1.2V309L252.5,309z M252.5,302.4
	h-1.2v-1h1.2V302.4z M253.6,306.3c0-0.8,0.2-1.4,0.6-1.9c0.4-0.5,1-0.8,1.8-0.8s1.4,0.3,1.8,0.8s0.6,1.1,0.6,1.9v0.1
	c0,0.8-0.2,1.4-0.6,1.9s-1,0.7-1.8,0.7s-1.4-0.3-1.8-0.8C253.8,307.7,253.6,307.1,253.6,306.3L253.6,306.3L253.6,306.3z
	 M254.8,306.4c0,0.5,0.1,0.9,0.3,1.3c0.2,0.3,0.5,0.5,0.9,0.5s0.7-0.2,0.9-0.5c0.2-0.3,0.3-0.7,0.3-1.3v-0.1c0-0.5-0.1-0.9-0.3-1.2
	c-0.2-0.3-0.5-0.5-0.9-0.5s-0.7,0.2-0.9,0.5s-0.3,0.7-0.3,1.2V306.4L254.8,306.4z M260.5,303.7l0.1,0.8c0.2-0.3,0.4-0.5,0.7-0.6
	c0.3-0.2,0.6-0.2,0.9-0.2c0.5,0,1,0.2,1.3,0.5s0.5,0.9,0.5,1.6v3.3h-1.2v-3.3c0-0.4-0.1-0.7-0.2-0.8c-0.2-0.2-0.4-0.3-0.8-0.3
	s-0.8,0.2-1.1,0.6v3.8h-1.2v-5.3L260.5,303.7L260.5,303.7z"/>
<path class="st6" d="M143,332h136v38H143V332z"/>
<path class="st5" d="M185.5,352.4c0-0.8,0.2-1.5,0.5-2c0.4-0.5,0.9-0.8,1.5-0.8c0.3,0,0.5,0.1,0.8,0.2c0.2,0.1,0.4,0.3,0.6,0.5v-2.9
	h1.2v7.6h-1l-0.1-0.7c-0.2,0.2-0.4,0.4-0.6,0.6c-0.3,0.1-0.5,0.2-0.8,0.2c-0.6,0-1.2-0.2-1.5-0.7s-0.5-1.1-0.5-1.9L185.5,352.4
	L185.5,352.4z M186.7,352.5c0,0.5,0.1,0.9,0.3,1.2c0.2,0.3,0.5,0.4,0.9,0.4c0.3,0,0.5-0.1,0.6-0.2c0.2-0.1,0.3-0.3,0.4-0.5v-2.3
	c-0.1-0.2-0.3-0.3-0.4-0.5c-0.2-0.1-0.4-0.2-0.6-0.2c-0.4,0-0.7,0.2-0.9,0.5s-0.3,0.8-0.3,1.3V352.5L186.7,352.5z M192.7,355h-1.2
	v-1.1h1.2V355L192.7,355z M202.4,352.1c0,0.9-0.3,1.6-0.8,2.2s-1.3,0.9-2.1,0.9c-0.9,0-1.5-0.3-2.1-0.9c-0.5-0.6-0.8-1.3-0.8-2.2
	v-1.3c0-0.9,0.3-1.6,0.8-2.2s1.2-0.9,2.1-0.9c0.9,0,1.6,0.3,2.1,0.9s0.8,1.3,0.8,2.2V352.1L202.4,352.1z M201.2,350.8
	c0-0.6-0.2-1.1-0.5-1.5s-0.7-0.6-1.3-0.6c-0.5,0-0.9,0.2-1.2,0.6s-0.5,0.9-0.5,1.5v1.3c0,0.6,0.2,1.1,0.5,1.5s0.7,0.6,1.2,0.6
	s1-0.2,1.3-0.6s0.5-0.9,0.5-1.5V350.8L201.2,350.8z M206.8,354.2c-0.2,0.3-0.4,0.5-0.6,0.6c-0.3,0.2-0.6,0.2-0.9,0.2
	c-0.6,0-1-0.2-1.3-0.5c-0.3-0.4-0.5-0.9-0.5-1.7v-3.2h1.2v3.2c0,0.5,0.1,0.8,0.2,1c0.1,0.2,0.4,0.3,0.7,0.3s0.5-0.1,0.7-0.2
	s0.3-0.3,0.5-0.4v-3.8h1.2v5.3h-1L206.8,354.2L206.8,354.2z M210.6,348.4v1.3h0.9v0.9h-0.9v2.9c0,0.2,0,0.4,0.1,0.5s0.2,0.1,0.4,0.1
	c0.1,0,0.2,0,0.4-0.1l0.1,0.9c-0.1,0.1-0.2,0.1-0.4,0.1c-0.1,0-0.3,0-0.4,0c-0.4,0-0.8-0.1-1-0.4s-0.4-0.7-0.4-1.2v-2.9h-0.8v-0.9
	h0.8v-1.3h1.2V348.4z M214.8,354.2c0.3,0,0.5-0.1,0.7-0.3c0.2-0.2,0.3-0.4,0.3-0.6h1.1l0,0c0,0.5-0.2,0.9-0.6,1.3
	c-0.4,0.4-0.9,0.5-1.5,0.5c-0.8,0-1.4-0.3-1.8-0.8c-0.4-0.5-0.6-1.1-0.6-1.9v-0.2c0-0.8,0.2-1.4,0.6-1.9c0.4-0.5,1-0.8,1.8-0.8
	c0.6,0,1.1,0.2,1.5,0.6s0.6,0.8,0.6,1.4l0,0h-1.1c0-0.3-0.1-0.5-0.3-0.7s-0.4-0.3-0.7-0.3c-0.4,0-0.8,0.2-0.9,0.5
	c-0.2,0.3-0.3,0.7-0.3,1.2v0.2c0,0.5,0.1,0.9,0.3,1.2C214.1,354,214.4,354.2,214.8,354.2L214.8,354.2z M217.7,352.3
	c0-0.8,0.2-1.4,0.6-1.9c0.4-0.5,1-0.8,1.8-0.8s1.4,0.3,1.8,0.8c0.4,0.5,0.6,1.1,0.6,1.9v0.1c0,0.8-0.2,1.4-0.6,1.9
	c-0.4,0.5-1,0.7-1.8,0.7s-1.4-0.3-1.8-0.8C217.9,353.7,217.7,353.1,217.7,352.3L217.7,352.3L217.7,352.3z M218.8,352.4
	c0,0.5,0.1,0.9,0.3,1.3c0.2,0.3,0.5,0.5,0.9,0.5s0.7-0.2,0.9-0.5s0.3-0.7,0.3-1.3v-0.1c0-0.5-0.1-0.9-0.3-1.2
	c-0.2-0.3-0.5-0.5-0.9-0.5s-0.7,0.2-0.9,0.5s-0.3,0.7-0.3,1.2V352.4z M224.6,349.7l0.1,0.7c0.2-0.2,0.4-0.4,0.6-0.6
	c0.3-0.1,0.6-0.2,0.9-0.2c0.3,0,0.6,0.1,0.9,0.2c0.2,0.2,0.4,0.4,0.6,0.7c0.2-0.3,0.4-0.5,0.6-0.7s0.6-0.2,0.9-0.2
	c0.5,0,0.9,0.2,1.3,0.5c0.3,0.4,0.5,0.9,0.5,1.7v3.2h-1.2v-3.2c0-0.5-0.1-0.8-0.2-0.9c-0.2-0.2-0.4-0.3-0.7-0.3s-0.5,0.1-0.6,0.2
	c-0.2,0.1-0.3,0.3-0.4,0.6v0.1v0.1v3.4h-1.2v-3.2c0-0.4-0.1-0.7-0.2-0.9c-0.2-0.2-0.4-0.3-0.7-0.3c-0.2,0-0.4,0-0.6,0.1
	c-0.2,0.1-0.3,0.2-0.4,0.4v3.9h-1.2v-5.3L224.6,349.7L224.6,349.7z M234.5,355.1c-0.7,0-1.3-0.2-1.8-0.7c-0.4-0.5-0.7-1.1-0.7-1.9
	v-0.2c0-0.8,0.2-1.4,0.7-1.9c0.4-0.5,1-0.8,1.7-0.8s1.3,0.2,1.6,0.6c0.4,0.4,0.6,1,0.6,1.7v0.7h-3.3l0,0c0,0.4,0.1,0.8,0.4,1
	c0.2,0.3,0.5,0.4,0.9,0.4c0.3,0,0.6,0,0.8-0.1s0.4-0.2,0.7-0.3l0.4,0.8c-0.2,0.2-0.5,0.3-0.8,0.4C235.3,355,234.9,355.1,234.5,355.1
	L234.5,355.1z M234.4,350.6c-0.3,0-0.6,0.1-0.7,0.4c-0.2,0.2-0.3,0.5-0.4,0.9l0,0h2.1v-0.1c0-0.3-0.1-0.6-0.3-0.8
	C235,350.7,234.7,350.6,234.4,350.6L234.4,350.6z"/>
<path class="st4" d="M215,62h91v38h-91V62z"/>
<path class="st5" d="M252.6,81.8h-4v2.9h4.7V86H247v-9.2h6.2V78h-4.6v2.6h4L252.6,81.8L252.6,81.8z M254.5,86v-9.2h3.1
	c1,0,1.8,0.2,2.4,0.6s0.9,1.1,0.9,1.9c0,0.4-0.1,0.8-0.4,1.1c-0.2,0.3-0.6,0.6-1,0.7c0.5,0.1,1,0.4,1.3,0.8s0.4,0.9,0.4,1.4
	c0,0.9-0.3,1.5-0.9,2c-0.6,0.4-1.4,0.7-2.4,0.7H254.5L254.5,86z M256.1,81.8v3h1.9c0.5,0,0.9-0.1,1.2-0.4c0.3-0.2,0.4-0.6,0.4-1.1
	s-0.1-0.9-0.4-1.1c-0.2-0.3-0.6-0.4-1.1-0.4H256.1L256.1,81.8z M256.1,80.6h1.7c0.5,0,0.9-0.1,1.1-0.3c0.3-0.2,0.4-0.5,0.4-1
	s-0.1-0.8-0.4-1s-0.7-0.3-1.3-0.3h-1.5L256.1,80.6L256.1,80.6z M267.9,83.6c0-0.4-0.1-0.7-0.4-0.9c-0.3-0.2-0.8-0.5-1.5-0.7
	c-1-0.3-1.8-0.6-2.4-1.1c-0.6-0.4-0.8-1-0.8-1.8c0-0.7,0.3-1.4,0.9-1.8c0.6-0.5,1.4-0.7,2.4-0.7s1.8,0.3,2.4,0.8s0.9,1.2,0.9,2l0,0
	h-1.5c0-0.5-0.2-0.9-0.5-1.2s-0.8-0.4-1.4-0.4s-1,0.1-1.3,0.4c-0.3,0.2-0.5,0.6-0.5,1s0.2,0.6,0.5,0.9s0.9,0.5,1.6,0.7
	c1,0.3,1.8,0.6,2.3,1.1s0.8,1.1,0.8,1.8c0,0.8-0.3,1.4-0.9,1.8c-0.6,0.5-1.4,0.7-2.4,0.7s-1.8-0.3-2.5-0.8s-1.1-1.2-1.1-2.1l0,0h1.5
	c0,0.6,0.2,1,0.6,1.3s0.9,0.4,1.5,0.4s1-0.1,1.3-0.3C267.7,84.3,267.9,84,267.9,83.6L267.9,83.6z"/>
<path class="st7" d="M134,132h153v54H134V132z"/>
<path class="st8" d="M168.9,26.9h-5v3.6h5.8V32H162V20.6h7.6v1.5h-5.7v3.2h5C168.9,25.4,168.9,26.9,168.9,26.9z M176.1,32
	c-0.1-0.2-0.1-0.4-0.2-0.6c0-0.2-0.1-0.4-0.1-0.6c-0.3,0.4-0.6,0.7-1,1s-0.9,0.4-1.4,0.4c-0.9,0-1.6-0.2-2-0.7
	c-0.5-0.5-0.7-1.1-0.7-1.9s0.3-1.5,1-1.9s1.6-0.7,2.7-0.7h1.5v-0.7c0-0.4-0.1-0.8-0.4-1c-0.3-0.2-0.6-0.4-1.1-0.4
	c-0.4,0-0.8,0.1-1,0.3c-0.2,0.2-0.4,0.5-0.4,0.8h-1.8l0,0c0-0.7,0.3-1.3,0.9-1.8c0.6-0.5,1.5-0.8,2.5-0.8s1.8,0.2,2.4,0.8
	c0.6,0.5,0.9,1.2,0.9,2.2v3.8c0,0.3,0,0.7,0.1,1c0,0.3,0.1,0.6,0.2,0.9L176.1,32L176.1,32z M173.8,30.6c0.5,0,0.9-0.1,1.3-0.4
	c0.4-0.2,0.6-0.5,0.8-0.8v-1.2h-1.5c-0.6,0-1,0.1-1.3,0.4s-0.5,0.6-0.5,1c0,0.3,0.1,0.6,0.3,0.8C173.1,30.5,173.4,30.6,173.8,30.6
	L173.8,30.6z M183.9,25.3h-0.8c-0.4,0-0.7,0.1-0.9,0.2c-0.3,0.2-0.5,0.4-0.6,0.7V32h-1.9v-8.5h1.7l0.1,1.2c0.2-0.4,0.5-0.8,0.8-1
	s0.7-0.4,1.2-0.4c0.1,0,0.2,0,0.3,0s0.2,0,0.3,0.1L183.9,25.3L183.9,25.3z M187.3,32h-1.9V19.8h1.9V32z M192.2,28.6l0.2,0.8l0,0
	l1.9-5.9h2.1l-3.5,9.7c-0.2,0.6-0.5,1.1-0.9,1.5s-1,0.6-1.7,0.6c-0.2,0-0.3,0-0.5,0s-0.3-0.1-0.5-0.1l0.2-1.5h0.3c0.1,0,0.2,0,0.3,0
	c0.3,0,0.6-0.1,0.8-0.4c0.2-0.2,0.4-0.5,0.5-0.8l0.3-0.8l-3.1-8.4h2.1L192.2,28.6L192.2,28.6z M204.5,29L204.5,29L204.5,29l2.3-8.3
	h1.5l2.3,8.3v0.1V29l1.8-8.3h1.9L211.6,32h-1.7l-2.3-8.2l0,0l-2.3,8.2h-1.7l-2.7-11.4h1.9L204.5,29L204.5,29z M220.8,32
	c-0.1-0.2-0.1-0.4-0.2-0.6c0-0.2-0.1-0.4-0.1-0.6c-0.3,0.4-0.6,0.7-1,1s-0.9,0.4-1.4,0.4c-0.9,0-1.6-0.2-2-0.7
	c-0.5-0.5-0.7-1.1-0.7-1.9s0.3-1.5,1-1.9c0.6-0.5,1.6-0.7,2.7-0.7h1.5v-0.7c0-0.4-0.1-0.8-0.4-1s-0.6-0.4-1.1-0.4
	c-0.4,0-0.8,0.1-1,0.3c-0.2,0.2-0.4,0.5-0.4,0.8h-1.8l0,0c0-0.7,0.3-1.3,0.9-1.8s1.5-0.8,2.5-0.8s1.8,0.2,2.4,0.8
	c0.6,0.5,0.9,1.2,0.9,2.2v3.8c0,0.3,0,0.7,0.1,1c0,0.3,0.1,0.6,0.2,0.9L220.8,32L220.8,32z M218.4,30.6c0.5,0,0.9-0.1,1.3-0.4
	c0.4-0.2,0.6-0.5,0.8-0.8v-1.2H219c-0.6,0-1,0.1-1.3,0.4s-0.5,0.6-0.5,1c0,0.3,0.1,0.6,0.3,0.8S218,30.6,218.4,30.6L218.4,30.6z
	 M228.6,25.3h-0.8c-0.4,0-0.7,0.1-0.9,0.2c-0.3,0.2-0.5,0.4-0.6,0.7V32h-1.9v-8.5h1.7l0.1,1.2c0.2-0.4,0.5-0.8,0.8-1
	s0.7-0.4,1.2-0.4c0.1,0,0.2,0,0.3,0s0.2,0,0.3,0.1C228.8,23.5,228.6,25.3,228.6,25.3z M231.6,23.5l0.1,1.2c0.3-0.4,0.6-0.8,1-1
	s0.9-0.4,1.4-0.4c0.9,0,1.6,0.3,2.1,0.8s0.7,1.4,0.7,2.5V32H235v-5.3c0-0.6-0.1-1.1-0.4-1.4c-0.3-0.3-0.7-0.4-1.2-0.4
	c-0.4,0-0.7,0.1-1,0.2c-0.3,0.2-0.5,0.4-0.7,0.7V32h-1.9v-8.5H231.6L231.6,23.5z M241,32h-1.9v-8.5h1.9V32z M241,21.5h-1.9v-1.7h1.9
	V21.5z M244.8,23.5l0.1,1.2c0.3-0.4,0.6-0.8,1-1s0.9-0.4,1.4-0.4c0.9,0,1.6,0.3,2.1,0.8s0.7,1.4,0.7,2.5V32h-1.9v-5.3
	c0-0.6-0.1-1.1-0.4-1.4c-0.3-0.3-0.7-0.4-1.2-0.4c-0.4,0-0.7,0.1-1,0.2c-0.3,0.2-0.5,0.4-0.7,0.7V32H243v-8.5H244.8L244.8,23.5z
	 M251.8,27.9c0-1.3,0.3-2.4,0.9-3.3c0.6-0.8,1.4-1.2,2.5-1.2c0.5,0,0.9,0.1,1.3,0.3s0.7,0.5,1,0.9l0.2-1.1h1.6V32
	c0,1.1-0.3,1.9-1,2.5s-1.6,0.9-2.9,0.9c-0.4,0-0.9-0.1-1.3-0.2c-0.4-0.1-0.9-0.3-1.3-0.5l0.4-1.5c0.3,0.2,0.7,0.3,1,0.4
	c0.4,0.1,0.8,0.1,1.2,0.1c0.7,0,1.2-0.1,1.5-0.4c0.3-0.3,0.5-0.7,0.5-1.4V31c-0.3,0.3-0.6,0.6-0.9,0.8c-0.4,0.2-0.8,0.3-1.2,0.3
	c-1,0-1.8-0.4-2.4-1.1c-0.6-0.8-0.9-1.7-0.9-3L251.8,27.9L251.8,27.9z M253.7,28.1c0,0.8,0.2,1.4,0.5,1.9s0.8,0.7,1.4,0.7
	c0.4,0,0.7-0.1,1-0.3c0.3-0.2,0.5-0.4,0.7-0.7V26c-0.2-0.3-0.4-0.5-0.7-0.7c-0.3-0.2-0.6-0.3-1-0.3c-0.6,0-1.1,0.3-1.4,0.8
	c-0.3,0.5-0.5,1.3-0.5,2.1L253.7,28.1L253.7,28.1z M201.4,163.3h-4.5L196,166h-1.9l4.2-11.4h1.8l4.1,11.4h-1.9L201.4,163.3
	L201.4,163.3z M197.5,161.8h3.4l-1.6-4.9l0,0L197.5,161.8z M207.3,166h-1.9v-12.2h1.9V166z M213.1,166.2c-1.2,0-2.2-0.4-2.9-1.2
	s-1.1-1.8-1.1-3v-0.3c0-1.2,0.4-2.2,1.1-3.1s1.6-1.2,2.7-1.2c1.1,0,2,0.3,2.6,1s0.9,1.6,0.9,2.8v1.1h-5.3l0,0c0,0.7,0.2,1.2,0.6,1.6
	c0.4,0.4,0.9,0.6,1.5,0.6c0.5,0,0.9-0.1,1.3-0.2c0.4-0.1,0.7-0.3,1.1-0.5l0.6,1.2c-0.3,0.3-0.7,0.5-1.3,0.7
	C214.4,166.1,213.8,166.2,213.1,166.2L213.1,166.2z M212.9,158.9c-0.5,0-0.9,0.2-1.2,0.6c-0.3,0.4-0.5,0.8-0.6,1.4l0,0h3.4v-0.2
	c0-0.5-0.1-1-0.4-1.3C213.8,159.1,213.4,158.9,212.9,158.9L212.9,158.9z M222.1,159.3h-0.8c-0.4,0-0.7,0.1-0.9,0.2
	c-0.3,0.2-0.5,0.4-0.6,0.7v5.9h-1.9v-8.5h1.7l0.1,1.2c0.2-0.4,0.5-0.8,0.8-1s0.7-0.4,1.2-0.4c0.1,0,0.2,0,0.3,0s0.2,0,0.3,0.1
	L222.1,159.3L222.1,159.3z M225.8,155.5v2.1h1.5v1.4h-1.5v4.7c0,0.3,0.1,0.6,0.2,0.7c0.2,0.1,0.4,0.2,0.6,0.2c0.2,0,0.4,0,0.6-0.1
	l0.2,1.4c-0.2,0.1-0.4,0.2-0.6,0.2c-0.2,0.1-0.5,0.1-0.7,0.1c-0.7,0-1.2-0.2-1.6-0.6c-0.4-0.4-0.6-1.1-0.6-1.9V159h-1.3v-1.4h1.3
	v-2.1H225.8L225.8,155.5z"/>
<rect y="0" class="st9" width="428" height="579"/>
</svg>
