<svg xmlns="http://www.w3.org/2000/svg" width="153" height="246" viewBox="0 0 153 246">
    <g fill="none" fill-rule="evenodd">
        <path fill="#37B2F4" d="M0 54h153v192H0z" opacity=".08"/>
        <path fill="#37B2F4" d="M9 62h136v38H9z" opacity=".22"/>
        <path fill="#3F424F" d="M49.403 84.72a4.379 4.379 0 0 1-.105-.39 2.792 2.792 0 0 1-.056-.382 2.096 2.096 0 0 1-.642.623 1.633 1.633 0 0 1-.891.251c-.55 0-.973-.141-1.267-.425-.295-.283-.442-.672-.442-1.167 0-.51.202-.909.605-1.193.404-.285.972-.428 1.705-.428h.922v-.463c0-.277-.081-.494-.244-.65-.162-.156-.395-.234-.698-.234-.27 0-.485.065-.644.195a.62.62 0 0 0-.24.503h-1.142l-.005-.03c-.023-.416.163-.785.559-1.108.395-.322.91-.483 1.545-.483.616 0 1.112.156 1.49.469.377.312.566.761.566 1.347v2.349c0 .218.015.427.044.627.03.2.076.397.141.589h-1.2zm-1.455-.85c.3 0 .57-.075.808-.224.24-.15.398-.321.476-.513v-.781h-.942c-.345 0-.615.085-.81.256-.196.17-.293.372-.293.603 0 .202.065.362.197.48.132.12.32.18.564.18zm5.02.85h-1.182v-1.138h1.182v1.138zm6.386-1.86l.127.493h.03l.122-.484 1.699-5.259h1.265l-2.54 7.11H58.93l-2.534-7.11h1.264l1.694 5.25zm6.207 1.962c-.75 0-1.346-.245-1.79-.735-.444-.49-.667-1.119-.667-1.887v-.195c0-.768.221-1.406.662-1.912a2.093 2.093 0 0 1 1.658-.754c.713 0 1.259.216 1.638.647.38.431.569 1.01.569 1.736v.698h-3.296l-.01.024c.02.42.143.764.369 1.03.226.268.54.401.94.401.319 0 .592-.04.82-.117.228-.078.448-.19.66-.337l.38.776a2.458 2.458 0 0 1-.79.445c-.33.12-.71.18-1.143.18zm-.137-4.531a.89.89 0 0 0-.723.35c-.189.232-.306.527-.351.885l.01.025h2.094v-.122c0-.336-.085-.609-.256-.82-.171-.212-.43-.318-.774-.318zm5.796.215l-.508-.02c-.231 0-.424.05-.579.147a.965.965 0 0 0-.359.415v3.672h-1.186v-5.283h1.084l.078.766c.133-.27.305-.482.515-.635a1.2 1.2 0 0 1 .725-.23c.072 0 .139.007.2.018.062.011.12.025.171.041l-.141 1.109zm2.094 4.214h-1.186v-5.283h1.186v5.283zm0-6.577h-1.186v-1.04h1.186v1.04zm1.626 6.577v-4.405h-.805v-.878h.805v-.45c0-.634.188-1.124.562-1.47.374-.344.898-.517 1.572-.517.235 0 .467.025.698.076.232.05.497.123.796.217l-.18.981a5.884 5.884 0 0 0-.596-.168 2.89 2.89 0 0 0-.635-.066c-.355 0-.615.079-.781.237-.166.158-.249.395-.249.71v.45h1.04v.878h-1.04v4.405H74.94zm4.19 0h-1.187v-5.283h1.187v5.283zm3.516-.845c.29 0 .533-.085.732-.256a.812.812 0 0 0 .298-.642h1.074l.01.029c.016.495-.185.921-.603 1.28-.419.357-.922.536-1.511.536-.778 0-1.375-.25-1.79-.752-.415-.501-.623-1.136-.623-1.904v-.17c0-.766.208-1.4.623-1.903.415-.503 1.012-.754 1.79-.754.634 0 1.15.185 1.545.554.395.37.587.84.574 1.409l-.01.03h-1.08c0-.29-.094-.536-.285-.738-.19-.202-.439-.303-.744-.303-.446 0-.762.162-.948.486-.185.324-.278.73-.278 1.218v.171c0 .498.093.907.278 1.228.186.32.502.481.948.481zm6.245.845a4.379 4.379 0 0 1-.105-.39 2.792 2.792 0 0 1-.057-.382 2.096 2.096 0 0 1-.642.623 1.633 1.633 0 0 1-.89.251c-.55 0-.973-.141-1.268-.425-.294-.283-.442-.672-.442-1.167 0-.51.202-.909.606-1.193.403-.285.971-.428 1.704-.428h.923v-.463c0-.277-.082-.494-.244-.65-.163-.156-.396-.234-.699-.234-.27 0-.485.065-.644.195a.62.62 0 0 0-.24.503h-1.142l-.005-.03c-.023-.416.164-.785.56-1.108.395-.322.91-.483 1.545-.483.615 0 1.111.156 1.489.469.377.312.566.761.566 1.347v2.349c0 .218.015.427.044.627.03.2.077.397.142.589H88.89zm-1.455-.85c.299 0 .568-.075.808-.224.239-.15.398-.321.476-.513v-.781h-.943c-.345 0-.615.085-.81.256-.196.17-.293.372-.293.603 0 .202.066.362.198.48.131.12.32.18.564.18zm5.19-5.718v1.285h.947v.878h-.947v2.92c0 .218.047.374.142.467.094.092.22.139.376.139a1.05 1.05 0 0 0 .366-.064l.127.87a1.36 1.36 0 0 1-.362.129c-.14.03-.284.046-.434.046-.436 0-.778-.127-1.026-.383-.247-.256-.37-.657-.37-1.204v-2.92h-.806v-.878h.805v-1.285h1.182zm3.267 6.568h-1.187v-5.283h1.187v5.283zm0-6.577h-1.187v-1.04h1.187v1.04zM97 82.029c0-.784.215-1.429.645-1.933.436-.505 1.027-.757 1.772-.757.758 0 1.353.252 1.782.757.433.501.65 1.146.65 1.933v.103c0 .794-.217 1.442-.65 1.943-.43.498-1.02.747-1.772.747-.755 0-1.35-.25-1.782-.752-.43-.501-.645-1.147-.645-1.938v-.103zm1.186.103c0 .514.101.934.303 1.26.199.322.511.483.938.483.413 0 .722-.161.927-.483.209-.326.313-.746.313-1.26v-.103c0-.504-.104-.92-.313-1.245-.205-.329-.517-.493-.937-.493-.413 0-.723.164-.928.493-.202.329-.302.744-.302 1.245v.103zm5.772-2.695l.068.761c.173-.27.39-.48.652-.632a1.74 1.74 0 0 1 .886-.227c.55 0 .98.167 1.287.5.308.334.461.854.461 1.56v3.32h-1.186v-3.31c0-.397-.082-.68-.247-.847-.164-.168-.414-.251-.75-.251a1.243 1.243 0 0 0-1.068.576v3.833h-1.187v-5.283h1.084z"/>
        <path fill="#37B2F4" d="M9 108h136v38H9z" opacity=".22"/>
        <path fill="#3F424F" d="M37.639 128.151c0 .772-.18 1.393-.54 1.863-.36.47-.867.706-1.52.706a1.75 1.75 0 0 1-.858-.2 1.672 1.672 0 0 1-.608-.586l-.117.683H33V123h1.187v2.935c.162-.225.358-.398.585-.518.228-.12.494-.18.796-.18.661 0 1.171.256 1.531.77.36.515.54 1.195.54 2.042v.102zm-1.187-.102c0-.55-.094-.995-.283-1.333-.189-.339-.488-.508-.898-.508-.264 0-.485.059-.662.176-.178.117-.318.28-.422.488v2.217c.1.211.24.375.42.49.178.116.403.174.673.174.41 0 .708-.144.894-.432.185-.288.278-.678.278-1.17v-.102zm3.516 2.568h-1.182v-1.138h1.182v1.138zm5.317-2.949v2.95H44.1v-7.11h2.627c.794 0 1.407.179 1.84.537.433.358.65.87.65 1.533 0 .368-.095.685-.286.95-.19.265-.468.478-.832.637.4.127.688.335.864.623.176.288.264.642.264 1.062v.59c0 .209.026.412.078.61.052.2.14.35.263.455v.112h-1.22c-.13-.107-.214-.277-.252-.508a4.241 4.241 0 0 1-.056-.678v-.572c0-.364-.104-.654-.312-.869-.209-.215-.495-.322-.86-.322h-1.582zm0-.952h1.377c.475 0 .822-.091 1.04-.274.218-.182.327-.46.327-.835 0-.358-.107-.638-.322-.842-.215-.203-.542-.305-.981-.305h-1.44v2.256zm6.548 3.901h-1.187v-5.283h1.187v5.283zm0-6.577h-1.187V123h1.187v1.04zm4.297 5.142a.552.552 0 0 0-.234-.454c-.157-.12-.448-.227-.875-.318-.631-.133-1.109-.323-1.433-.569-.324-.245-.485-.58-.485-1.003 0-.443.187-.82.561-1.133.374-.312.868-.469 1.48-.469.644 0 1.156.159 1.535.476.38.318.56.71.545 1.18l-.01.029h-1.138a.744.744 0 0 0-.249-.562c-.166-.156-.394-.234-.683-.234-.287 0-.505.064-.655.193a.599.599 0 0 0-.224.471c0 .186.07.333.212.442.142.109.429.206.862.29.664.137 1.156.33 1.477.58.32.248.48.587.48 1.017 0 .475-.195.861-.588 1.157-.392.297-.909.445-1.55.445-.687 0-1.229-.176-1.626-.528-.397-.351-.586-.755-.566-1.21l.01-.03h1.103c.013.306.124.53.332.67.208.14.462.21.762.21.306 0 .542-.06.708-.177a.551.551 0 0 0 .249-.473zm3.95-.874h-.532v2.31h-1.182V123h1.182v4.355h.493l1.333-2.021h1.397l-1.744 2.402 2.002 2.881h-1.377l-1.572-2.31zm10.01.649h-2.783l-.567 1.66h-1.2l2.611-7.11h1.123l2.583 7.11h-1.206l-.561-1.66zm-2.442-.991h2.105l-1.03-3.037h-.03l-1.045 3.037zm7.852 1.216a.552.552 0 0 0-.234-.454c-.157-.12-.448-.227-.874-.318-.632-.133-1.11-.323-1.434-.569-.323-.245-.485-.58-.485-1.003 0-.443.187-.82.561-1.133.375-.312.868-.469 1.48-.469.644 0 1.156.159 1.535.476.38.318.561.71.545 1.18l-.01.029h-1.138a.744.744 0 0 0-.249-.562c-.166-.156-.394-.234-.683-.234-.287 0-.505.064-.655.193a.599.599 0 0 0-.224.471c0 .186.07.333.212.442.142.109.429.206.862.29.664.137 1.156.33 1.477.58.32.248.481.587.481 1.017 0 .475-.196.861-.588 1.157-.393.297-.91.445-1.55.445-.688 0-1.23-.176-1.627-.528-.397-.351-.586-.755-.566-1.21l.01-.03h1.103c.013.306.124.53.332.67.209.14.462.21.762.21.306 0 .542-.06.708-.177a.551.551 0 0 0 .249-.473zm5.2 0a.552.552 0 0 0-.234-.454c-.156-.12-.448-.227-.874-.318-.632-.133-1.11-.323-1.433-.569-.324-.245-.486-.58-.486-1.003 0-.443.187-.82.561-1.133.375-.312.868-.469 1.48-.469.644 0 1.156.159 1.536.476.379.318.56.71.544 1.18l-.01.029h-1.138a.744.744 0 0 0-.249-.562c-.166-.156-.393-.234-.683-.234-.287 0-.505.064-.654.193a.599.599 0 0 0-.225.471c0 .186.07.333.212.442.142.109.43.206.862.29.664.137 1.157.33 1.477.58.32.248.481.587.481 1.017 0 .475-.196.861-.588 1.157-.392.297-.91.445-1.55.445-.687 0-1.23-.176-1.626-.528-.398-.351-.586-.755-.567-1.21l.01-.03h1.103c.013.306.124.53.332.67.209.14.463.21.762.21.306 0 .542-.06.708-.177a.551.551 0 0 0 .25-.473zm4.497 1.538c-.748 0-1.345-.245-1.79-.735-.444-.49-.666-1.12-.666-1.887v-.196c0-.768.22-1.405.662-1.911a2.093 2.093 0 0 1 1.658-.755c.712 0 1.258.216 1.638.647.379.432.569 1.01.569 1.736v.698h-3.296l-.01.025c.02.42.142.763.369 1.03.226.267.54.4.94.4.319 0 .592-.039.82-.117.228-.078.447-.19.659-.337l.38.777a2.458 2.458 0 0 1-.79.444c-.329.12-.71.18-1.143.18zm-.136-4.532a.89.89 0 0 0-.723.35c-.189.232-.306.528-.352.886l.01.024h2.095v-.122c0-.335-.086-.609-.257-.82-.17-.212-.428-.318-.773-.318zm6.132 2.994a.552.552 0 0 0-.234-.454c-.156-.12-.448-.227-.874-.318-.632-.133-1.11-.323-1.433-.569-.324-.245-.486-.58-.486-1.003 0-.443.187-.82.562-1.133.374-.312.867-.469 1.479-.469.645 0 1.156.159 1.536.476.379.318.56.71.544 1.18l-.01.029H91.14a.744.744 0 0 0-.25-.562c-.165-.156-.393-.234-.683-.234-.286 0-.505.064-.654.193a.599.599 0 0 0-.225.471c0 .186.07.333.213.442.141.109.428.206.861.29.664.137 1.157.33 1.477.58.321.248.481.587.481 1.017 0 .475-.196.861-.588 1.157-.392.297-.909.445-1.55.445-.687 0-1.23-.176-1.626-.528-.397-.351-.586-.755-.567-1.21l.01-.03h1.104c.013.306.123.53.332.67.208.14.462.21.761.21.306 0 .542-.06.708-.177a.551.551 0 0 0 .25-.473zm5.2 0a.552.552 0 0 0-.234-.454c-.156-.12-.447-.227-.874-.318-.631-.133-1.11-.323-1.433-.569-.324-.245-.486-.58-.486-1.003 0-.443.187-.82.562-1.133.374-.312.867-.469 1.48-.469.644 0 1.156.159 1.535.476.38.318.56.71.544 1.18l-.01.029H96.34a.744.744 0 0 0-.25-.562c-.165-.156-.393-.234-.683-.234-.286 0-.504.064-.654.193a.599.599 0 0 0-.225.471c0 .186.071.333.213.442.141.109.429.206.862.29.664.137 1.156.33 1.477.58.32.248.48.587.48 1.017 0 .475-.196.861-.588 1.157-.392.297-.909.445-1.55.445-.687 0-1.229-.176-1.626-.528-.397-.351-.586-.755-.567-1.21l.01-.03h1.104c.013.306.123.53.332.67.208.14.462.21.762.21.306 0 .542-.06.708-.177a.551.551 0 0 0 .249-.473zm3.316-3.848l.063.688a1.79 1.79 0 0 1 .65-.58c.26-.137.561-.206.903-.206.345 0 .641.078.889.235.247.156.433.39.557.703.162-.293.377-.523.644-.689.267-.166.58-.249.938-.249.53 0 .95.182 1.257.545.307.363.461.914.461 1.653v3.183h-1.186v-3.188c0-.45-.078-.765-.232-.948-.155-.182-.387-.273-.696-.273-.254 0-.469.068-.644.205-.176.137-.303.32-.381.552 0 .049.001.091.005.127.003.036.004.07.004.102v3.423h-1.186v-3.188c0-.433-.08-.745-.237-.935-.158-.19-.39-.286-.696-.286-.24 0-.445.046-.613.14-.167.092-.3.223-.397.392v3.877h-1.187v-5.283h1.084zm9.878 5.386c-.749 0-1.345-.245-1.79-.735-.444-.49-.666-1.12-.666-1.887v-.196c0-.768.22-1.405.661-1.911a2.093 2.093 0 0 1 1.658-.755c.713 0 1.26.216 1.638.647.38.432.57 1.01.57 1.736v.698h-3.297l-.01.025c.02.42.143.763.37 1.03.225.267.539.4.94.4.318 0 .592-.039.82-.117.227-.078.447-.19.659-.337l.38.777a2.458 2.458 0 0 1-.79.444c-.33.12-.71.18-1.143.18zm-.137-4.532a.89.89 0 0 0-.722.35c-.19.232-.306.528-.352.886l.01.024h2.094v-.122c0-.335-.085-.609-.256-.82-.17-.212-.429-.318-.774-.318zm4.238-.854l.069.762c.172-.27.39-.481.652-.633a1.74 1.74 0 0 1 .886-.227c.55 0 .979.167 1.287.5.307.334.461.854.461 1.56v3.321h-1.187v-3.31c0-.397-.082-.68-.246-.848-.165-.167-.414-.251-.75-.251a1.243 1.243 0 0 0-1.069.576v3.833h-1.187v-5.283h1.084zm6.065-1.284v1.284h.947v.879h-.947v2.92c0 .218.047.373.142.466.094.093.22.14.376.14a1.049 1.049 0 0 0 .366-.064l.127.869a1.36 1.36 0 0 1-.362.13c-.14.03-.284.046-.434.046-.436 0-.778-.128-1.026-.384-.247-.255-.37-.656-.37-1.203v-2.92h-.806v-.879h.805v-1.284h1.182z"/>
        <path fill="#37B2F4" d="M9 154h136v38H9z" opacity=".22"/>
        <path fill="#3F424F" d="M26.412 175.772c.29 0 .534-.085.733-.256a.812.812 0 0 0 .297-.642h1.075l.01.03c.016.494-.185.92-.604 1.279-.418.358-.922.537-1.51.537-.779 0-1.375-.25-1.79-.752-.415-.502-.623-1.136-.623-1.905v-.17c0-.765.208-1.4.623-1.902.415-.503 1.011-.755 1.79-.755.634 0 1.149.185 1.545.555.395.369.586.839.573 1.408l-.01.03h-1.079c0-.29-.095-.536-.285-.738-.19-.202-.439-.303-.745-.303-.446 0-.762.162-.947.486-.186.324-.278.73-.278 1.219v.17c0 .499.092.908.278 1.229.185.32.501.48.947.48zm4.37.845h-1.181v-1.138h1.181v1.138zm5.318-2.949v2.95h-1.187v-7.11h2.627c.794 0 1.408.179 1.84.537.434.358.65.87.65 1.533 0 .368-.095.685-.285.95-.19.265-.468.478-.833.637.4.127.689.335.864.623.176.288.264.642.264 1.062v.59c0 .209.026.412.078.61.052.2.14.35.264.455v.112h-1.22c-.131-.107-.215-.277-.252-.508a4.241 4.241 0 0 1-.056-.678v-.572c0-.364-.105-.654-.313-.869-.208-.215-.495-.322-.86-.322H36.1zm0-.952h1.377c.475 0 .822-.091 1.04-.274.218-.182.327-.46.327-.835 0-.358-.108-.638-.323-.842-.214-.203-.542-.305-.981-.305H36.1v2.256zm6.547 3.901h-1.186v-5.283h1.186v5.283zm0-6.577h-1.186V169h1.186v1.04zm4.297 5.142a.552.552 0 0 0-.234-.454c-.156-.12-.448-.227-.874-.318-.632-.133-1.11-.323-1.433-.569-.324-.245-.486-.58-.486-1.003 0-.443.187-.82.562-1.133.374-.312.867-.469 1.479-.469.645 0 1.156.159 1.536.476.379.318.56.71.544 1.18l-.01.029h-1.137a.744.744 0 0 0-.25-.562c-.165-.156-.393-.234-.683-.234-.286 0-.505.064-.654.193a.599.599 0 0 0-.225.471c0 .186.07.333.213.442.141.109.428.206.861.29.664.137 1.157.33 1.477.58.321.248.481.587.481 1.017 0 .475-.196.861-.588 1.157-.392.297-.91.445-1.55.445-.687 0-1.23-.176-1.626-.528-.397-.351-.586-.755-.567-1.21l.01-.03h1.104c.013.306.123.53.332.67.208.14.462.21.761.21.306 0 .542-.06.708-.177a.551.551 0 0 0 .25-.473zm3.95-.874h-.532v2.31h-1.181V169h1.181v4.355h.493l1.333-2.021h1.397l-1.743 2.402 2.002 2.881h-1.377l-1.572-2.31zm11.343-.05l.01.03c.013.72-.22 1.305-.7 1.755-.48.451-1.131.677-1.951.677-.83 0-1.505-.28-2.024-.838-.52-.558-.779-1.272-.779-2.14v-1.353c0-.866.256-1.58.769-2.141.513-.562 1.18-.843 2-.843.84 0 1.501.22 1.984.662.484.441.719 1.034.706 1.78l-.01.029h-1.147c0-.479-.13-.851-.388-1.118-.26-.267-.64-.4-1.145-.4-.486 0-.87.191-1.155.576-.285.384-.428.865-.428 1.445v1.362c0 .586.146 1.071.438 1.455.29.384.684.576 1.179.576.491 0 .864-.131 1.118-.395.254-.264.38-.636.38-1.118h1.143zm2.193-2.24c.175-.248.39-.44.642-.577.252-.136.531-.205.837-.205.56 0 .997.177 1.311.53.314.353.471.898.471 1.633v3.218h-1.186v-3.227c0-.417-.083-.718-.25-.904-.165-.185-.414-.278-.746-.278a1.28 1.28 0 0 0-1.08.542v3.867h-1.186V169h1.187v3.018zm7.67 4.6a4.379 4.379 0 0 1-.104-.391 2.792 2.792 0 0 1-.057-.381 2.096 2.096 0 0 1-.642.622 1.633 1.633 0 0 1-.89.252c-.55 0-.973-.142-1.268-.425-.294-.283-.442-.672-.442-1.167 0-.511.202-.91.606-1.194.403-.285.971-.427 1.704-.427h.923v-.464c0-.277-.082-.493-.244-.65-.163-.156-.396-.234-.699-.234-.27 0-.485.065-.644.195a.62.62 0 0 0-.24.503h-1.142l-.005-.029c-.023-.417.164-.786.56-1.108.395-.323.91-.484 1.545-.484.615 0 1.111.157 1.489.47.377.312.566.76.566 1.347v2.348c0 .218.015.428.044.628.03.2.077.396.142.588H72.1zm-1.454-.85c.299 0 .568-.075.808-.225.239-.15.398-.32.476-.513v-.781h-.943c-.345 0-.615.085-.81.256-.196.171-.293.372-.293.603 0 .202.066.363.198.481.131.12.32.179.564.179zm6.347-3.365l-.508-.02c-.23 0-.424.05-.578.147a.965.965 0 0 0-.36.415v3.672h-1.186v-5.283h1.084l.078.767c.134-.27.306-.482.516-.635a1.2 1.2 0 0 1 .725-.23c.071 0 .138.006.2.017.062.012.119.026.17.042l-.14 1.108zm4.009 4.214a4.379 4.379 0 0 1-.105-.39 2.792 2.792 0 0 1-.056-.381 2.096 2.096 0 0 1-.642.622 1.633 1.633 0 0 1-.891.252c-.55 0-.973-.142-1.267-.425-.295-.283-.442-.672-.442-1.167 0-.511.201-.91.605-1.194.404-.285.972-.427 1.704-.427h.923v-.464c0-.277-.081-.493-.244-.65-.163-.156-.396-.234-.698-.234-.27 0-.485.065-.645.195a.62.62 0 0 0-.24.503h-1.142l-.005-.029c-.022-.417.164-.786.56-1.108.395-.323.91-.484 1.545-.484.615 0 1.112.157 1.49.47.377.312.566.76.566 1.347v2.348c0 .218.014.428.044.628.029.2.076.396.141.588h-1.201zm-1.455-.85c.3 0 .569-.074.808-.224.24-.15.398-.32.476-.513v-.781h-.942c-.345 0-.616.085-.81.256-.196.171-.294.372-.294.603 0 .202.066.363.198.481.132.12.32.179.564.179zm5.898.005c.29 0 .534-.085.733-.256a.812.812 0 0 0 .298-.642h1.074l.01.03c.016.494-.185.92-.603 1.279-.419.358-.922.537-1.512.537-.778 0-1.374-.25-1.79-.752-.414-.502-.622-1.136-.622-1.905v-.17c0-.765.208-1.4.623-1.902.415-.503 1.011-.755 1.79-.755.634 0 1.15.185 1.545.555.395.369.586.839.573 1.408l-.01.03h-1.078c0-.29-.096-.536-.286-.738-.19-.202-.439-.303-.745-.303-.446 0-.761.162-.947.486-.186.324-.278.73-.278 1.219v.17c0 .499.092.908.278 1.229.186.32.501.48.947.48zm4.541-5.722v1.284h.948v.879h-.948v2.92c0 .218.048.373.142.466.094.093.22.14.376.14a1.049 1.049 0 0 0 .366-.064l.127.869a1.36 1.36 0 0 1-.361.13c-.14.03-.285.046-.435.046-.436 0-.778-.128-1.025-.384-.248-.255-.371-.656-.371-1.203v-2.92h-.806v-.879h.806v-1.284h1.181zm4.268 6.67c-.749 0-1.345-.245-1.79-.735-.444-.49-.666-1.12-.666-1.887v-.196c0-.768.22-1.405.661-1.911a2.093 2.093 0 0 1 1.658-.755c.713 0 1.26.216 1.638.647.38.432.57 1.01.57 1.736v.698h-3.297l-.01.025c.02.42.143.763.37 1.03.225.267.539.4.94.4.318 0 .592-.039.82-.117.227-.078.447-.19.659-.337l.38.777a2.458 2.458 0 0 1-.79.444c-.33.12-.71.18-1.143.18zm-.137-4.532a.89.89 0 0 0-.722.35c-.19.232-.306.528-.352.886l.01.024h2.094v-.122c0-.335-.085-.609-.256-.82-.17-.212-.429-.318-.774-.318zm5.796.215l-.508-.02c-.23 0-.424.05-.578.147a.965.965 0 0 0-.36.415v3.672h-1.186v-5.283h1.084l.078.767c.134-.27.306-.482.515-.635a1.2 1.2 0 0 1 .726-.23c.071 0 .138.006.2.017.062.012.119.026.17.042l-.14 1.108zm2.095 4.214h-1.187v-5.283h1.187v5.283zm0-6.577h-1.187V169h1.187v1.04zm2.588 5.63h2.822v.947h-4.292v-.776l2.666-3.55h-2.612v-.957h4.111v.752l-2.695 3.584zm6.987.947a4.38 4.38 0 0 1-.105-.39 2.792 2.792 0 0 1-.056-.381 2.096 2.096 0 0 1-.642.622 1.633 1.633 0 0 1-.891.252c-.55 0-.973-.142-1.267-.425-.295-.283-.442-.672-.442-1.167 0-.511.202-.91.605-1.194.404-.285.972-.427 1.704-.427h.923v-.464c0-.277-.081-.493-.244-.65-.163-.156-.396-.234-.698-.234-.27 0-.485.065-.645.195a.62.62 0 0 0-.24.503h-1.142l-.005-.029c-.022-.417.164-.786.56-1.108.395-.323.91-.484 1.545-.484.615 0 1.112.157 1.49.47.377.312.566.76.566 1.347v2.348c0 .218.014.428.044.628.029.2.076.396.141.588h-1.201zm-1.455-.85c.3 0 .569-.074.808-.224.24-.15.398-.32.476-.513v-.781h-.942c-.345 0-.616.085-.81.256-.196.171-.294.372-.294.603 0 .202.066.363.198.481.132.12.32.179.564.179zm5.19-5.717v1.284h.948v.879h-.948v2.92c0 .218.048.373.142.466.094.093.22.14.376.14a1.049 1.049 0 0 0 .366-.064l.127.869a1.36 1.36 0 0 1-.361.13c-.14.03-.285.046-.435.046-.436 0-.778-.128-1.025-.384-.248-.255-.371-.656-.371-1.203v-2.92h-.806v-.879h.806v-1.284h1.181zm3.267 6.567h-1.187v-5.283h1.187v5.283zm0-6.577h-1.187V169h1.187v1.04zm1.108 3.887c0-.785.215-1.43.645-1.934.436-.504 1.027-.757 1.772-.757.759 0 1.353.253 1.783.757.433.501.649 1.146.649 1.934v.102c0 .795-.216 1.442-.65 1.944-.43.498-1.02.747-1.772.747-.755 0-1.35-.25-1.782-.752-.43-.502-.645-1.148-.645-1.939v-.102zm1.187.102c0 .515.1.935.303 1.26.198.322.51.483.937.483.414 0 .723-.16.928-.483.208-.325.312-.745.312-1.26v-.102c0-.505-.104-.92-.312-1.245-.205-.33-.518-.494-.938-.494-.413 0-.722.165-.927.494-.202.328-.303.743-.303 1.245v.102zm5.771-2.695l.069.762c.172-.27.39-.481.652-.633a1.74 1.74 0 0 1 .886-.227c.55 0 .979.167 1.286.5.308.334.462.854.462 1.56v3.321h-1.187v-3.31c0-.397-.082-.68-.246-.848-.165-.167-.414-.251-.75-.251a1.243 1.243 0 0 0-1.07.576v3.833h-1.186v-5.283h1.084z"/>
        <path fill="#37B2F4" d="M9 200h136v38H9z" opacity=".22"/>
        <path fill="#3F424F" d="M51 220.049c0-.843.18-1.523.542-2.039.361-.516.87-.774 1.523-.774.287 0 .543.058.77.174.226.115.422.28.588.495V215h1.186v7.617h-.996l-.117-.654c-.17.247-.373.435-.61.564a1.718 1.718 0 0 1-.83.193c-.648 0-1.153-.236-1.514-.708S51 220.92 51 220.152v-.103zm1.187.102c0 .489.093.878.28 1.167.187.29.484.435.891.435.251 0 .463-.054.638-.161.174-.108.316-.26.427-.46v-2.304a1.25 1.25 0 0 0-.43-.456 1.162 1.162 0 0 0-.625-.164c-.403 0-.701.17-.893.51-.192.34-.288.784-.288 1.33v.103zm6 2.466h-1.181v-1.138h1.181v1.138zm9.673-2.915c0 .87-.272 1.59-.818 2.16-.545.572-1.252.858-2.121.858-.853 0-1.546-.286-2.078-.857-.532-.571-.798-1.292-.798-2.16v-1.28c0-.866.266-1.585.798-2.158s1.223-.86 2.073-.86c.87 0 1.577.287 2.124.86.547.573.82 1.292.82 2.158v1.28zm-1.181-1.289c0-.592-.159-1.079-.476-1.46-.318-.38-.747-.571-1.287-.571-.52 0-.933.19-1.235.571-.303.381-.454.868-.454 1.46v1.29c0 .598.15 1.089.454 1.471.302.383.716.574 1.24.574.544 0 .972-.19 1.287-.571.314-.381.47-.873.47-1.475v-1.289zm5.605 3.433c-.166.28-.376.495-.63.647a1.683 1.683 0 0 1-.879.227c-.566 0-1.009-.18-1.328-.542-.319-.362-.478-.923-.478-1.685v-3.159h1.181v3.169c0 .462.075.786.225.972.15.185.376.278.679.278.286 0 .526-.051.72-.154.194-.102.346-.251.456-.447v-3.818h1.187v5.283h-1.035l-.098-.771zm3.848-5.796v1.284h.947v.879h-.947v2.92c0 .218.047.373.141.466.095.093.22.14.376.14a1.049 1.049 0 0 0 .367-.064l.127.869a1.36 1.36 0 0 1-.362.13c-.14.03-.285.046-.434.046-.437 0-.778-.128-1.026-.384-.247-.255-.37-.656-.37-1.203v-2.92h-.806v-.879h.805v-1.284h1.182zm4.184 5.722c.29 0 .534-.085.733-.256a.812.812 0 0 0 .298-.642h1.074l.01.03c.016.494-.185.92-.603 1.279-.419.358-.922.537-1.512.537-.778 0-1.374-.25-1.79-.752-.414-.502-.622-1.136-.622-1.905v-.17c0-.765.208-1.4.623-1.902.415-.503 1.011-.755 1.79-.755.634 0 1.15.185 1.545.555.395.369.587.839.574 1.408l-.01.03h-1.08c0-.29-.095-.536-.285-.738-.19-.202-.439-.303-.745-.303-.446 0-.761.162-.947.486-.185.324-.278.73-.278 1.219v.17c0 .499.093.908.278 1.229.186.32.501.48.947.48zm2.847-1.845c0-.785.215-1.43.645-1.934.436-.504 1.027-.757 1.772-.757.759 0 1.353.253 1.782.757.433.501.65 1.146.65 1.934v.102c0 .795-.217 1.442-.65 1.944-.43.498-1.02.747-1.772.747-.755 0-1.35-.25-1.782-.752-.43-.502-.645-1.148-.645-1.939v-.102zm1.187.102c0 .515.1.935.302 1.26.199.322.511.483.938.483.413 0 .722-.16.928-.483.208-.325.312-.745.312-1.26v-.102c0-.505-.104-.92-.312-1.245-.206-.33-.518-.494-.938-.494-.413 0-.723.165-.928.494-.201.328-.302.743-.302 1.245v.102zm5.78-2.695l.064.688a1.79 1.79 0 0 1 .65-.58c.26-.137.561-.206.903-.206.345 0 .641.078.889.235.247.156.433.39.556.703.163-.293.378-.523.645-.689.267-.166.58-.249.937-.249.531 0 .95.182 1.258.545.307.363.461.914.461 1.653v3.183h-1.186v-3.188c0-.45-.078-.765-.232-.948-.155-.182-.387-.273-.696-.273-.254 0-.469.068-.645.205-.175.137-.302.32-.38.552 0 .049.001.091.004.127.004.036.005.07.005.102v3.423h-1.186v-3.188c0-.433-.08-.745-.237-.935-.158-.19-.39-.286-.696-.286-.24 0-.445.046-.613.14-.167.092-.3.223-.398.392v3.877h-1.186v-5.283h1.084zm9.879 5.386c-.749 0-1.345-.245-1.79-.735-.444-.49-.666-1.12-.666-1.887v-.196c0-.768.22-1.405.661-1.911a2.093 2.093 0 0 1 1.658-.755c.713 0 1.259.216 1.638.647.38.432.57 1.01.57 1.736v.698h-3.297l-.01.025c.02.42.143.763.37 1.03.225.267.539.4.939.4.319 0 .592-.039.82-.117.228-.078.448-.19.66-.337l.38.777a2.458 2.458 0 0 1-.79.444c-.33.12-.71.18-1.143.18zm-.137-4.532a.89.89 0 0 0-.723.35c-.188.232-.306.528-.351.886l.01.024h2.094v-.122c0-.335-.085-.609-.256-.82-.17-.212-.429-.318-.774-.318z"/>
        <path fill="#37B2F4" d="M0 0h153v54H0z"/>
        <path fill="#FFF" d="M67.281 31.531h-4.453l-.906 2.657H60l4.18-11.376h1.797l4.132 11.375h-1.93l-.898-2.656zm-3.906-1.586h3.367l-1.648-4.86h-.047l-1.672 4.86zm9.836 4.242h-1.898V22h1.898v12.188zm5.75.165c-1.198 0-2.152-.392-2.863-1.176-.711-.784-1.067-1.79-1.067-3.02v-.312c0-1.23.353-2.249 1.059-3.059s1.59-1.212 2.652-1.207c1.14 0 2.015.345 2.621 1.035.607.69.91 1.616.91 2.778v1.117H77l-.016.039c.032.672.228 1.221.59 1.648.362.427.863.64 1.504.64.51 0 .948-.062 1.313-.187a4.3 4.3 0 0 0 1.054-.539l.61 1.243c-.318.28-.74.518-1.266.71-.526.193-1.135.29-1.828.29zm-.219-7.25c-.469 0-.854.186-1.156.558-.302.373-.49.845-.563 1.418l.016.04h3.352v-.196c0-.537-.137-.974-.41-1.313-.274-.338-.687-.507-1.239-.507zm9.274.343l-.813-.03c-.37 0-.678.077-.926.233a1.544 1.544 0 0 0-.574.665v5.875h-1.898v-8.454h1.734l.125 1.227c.214-.432.488-.77.824-1.016a1.919 1.919 0 0 1 1.16-.367c.115 0 .222.01.32.027.1.019.19.04.274.067l-.226 1.773zm3.687-3.765v2.054h1.516v1.407h-1.516v4.672c0 .348.076.597.227.746.15.148.351.222.601.222.104 0 .206-.009.305-.027.099-.018.193-.043.281-.074l.203 1.39a2.177 2.177 0 0 1-.578.207c-.224.05-.456.075-.695.075-.698 0-1.245-.205-1.64-.614-.397-.409-.594-1.05-.594-1.925V27.14h-1.29v-1.407h1.29V23.68h1.89z"/>
    </g>
</svg>
