<?xml version="1.0" encoding="utf-8"?>
<!-- Generator: Adobe Illustrator 23.0.1, SVG Export Plug-In . SVG Version: 6.00 Build 0)  -->
<svg version="1.1" id="Layer_1" xmlns="http://www.w3.org/2000/svg" xmlns:xlink="http://www.w3.org/1999/xlink" x="0px" y="0px"
	 width="428px" height="579px" viewBox="0 0 428 579" style="enable-background:new 0 0 428 579;" xml:space="preserve">
<style type="text/css">
	.st0{fill:#A6B3BC;}
	.st1{fill-rule:evenodd;clip-rule:evenodd;fill:#A6B3BC;}
	.st2{opacity:0.16;fill-rule:evenodd;clip-rule:evenodd;fill:#A6B3BC;enable-background:new    ;}
	.st3{opacity:0.22;fill-rule:evenodd;clip-rule:evenodd;fill:#A6B3BC;enable-background:new    ;}
	.st4{fill-rule:evenodd;clip-rule:evenodd;fill:#3F424F;}
	.st5{fill-rule:evenodd;clip-rule:evenodd;fill:#FFFFFF;}
	.st6{fill-rule:evenodd;clip-rule:evenodd;fill:none;}
</style>
<path class="st0" d="M161.2,131.5l7-14h-14L161.2,131.5z M160.2,100v19.5h2V99h-2V100z M261.2,131.5l7-14h-14L261.2,131.5z
	 M260.2,100v19.5h2V99h-2V100z"/>
<path class="st1" d="M108,0h204v54H108V0z"/>
<path class="st2" d="M108,54h204v54H108V54z"/>
<path class="st3" d="M116,62h91v38h-91V62z"/>
<path class="st4" d="M151.6,86h-1.5v-9.2h1.5L151.6,86L151.6,86z M153.7,86v-9.2h3.1c1,0,1.8,0.2,2.4,0.6c0.6,0.4,0.9,1.1,0.9,1.9
	c0,0.4-0.1,0.8-0.4,1.1c-0.2,0.3-0.6,0.6-1,0.7c0.6,0.1,1,0.4,1.3,0.8s0.4,0.9,0.4,1.4c0,0.9-0.3,1.5-0.9,2
	c-0.6,0.4-1.4,0.7-2.4,0.7H153.7z M155.3,81.8v3h1.9c0.5,0,0.9-0.1,1.2-0.4c0.3-0.2,0.4-0.6,0.4-1.1c0-0.5-0.1-0.9-0.4-1.1
	c-0.2-0.3-0.6-0.4-1.1-0.4C157.4,81.8,155.3,81.8,155.3,81.8z M155.3,80.6h1.7c0.5,0,0.9-0.1,1.1-0.3c0.3-0.2,0.4-0.5,0.4-1
	c0-0.5-0.1-0.8-0.4-1c-0.3-0.2-0.7-0.3-1.3-0.3h-1.5L155.3,80.6L155.3,80.6z M167.1,83.6c0-0.4-0.1-0.7-0.4-0.9
	c-0.3-0.2-0.8-0.5-1.5-0.7c-1-0.3-1.8-0.6-2.4-1.1c-0.6-0.4-0.8-1-0.8-1.8c0-0.7,0.3-1.4,0.9-1.8c0.6-0.5,1.4-0.7,2.4-0.7
	c1,0,1.8,0.3,2.4,0.8c0.6,0.5,0.9,1.2,0.9,2l0,0h-1.5c0-0.5-0.2-0.9-0.5-1.2c-0.3-0.3-0.8-0.4-1.4-0.4c-0.6,0-1,0.1-1.3,0.4
	c-0.3,0.2-0.5,0.6-0.5,1c0,0.4,0.2,0.6,0.5,0.9s0.9,0.5,1.6,0.7c1,0.3,1.8,0.6,2.3,1.1c0.5,0.5,0.8,1.1,0.8,1.8
	c0,0.8-0.3,1.4-0.9,1.8c-0.6,0.5-1.4,0.7-2.4,0.7c-1,0-1.8-0.3-2.5-0.8c-0.7-0.5-1.1-1.2-1.1-2.1l0,0h1.5c0,0.6,0.2,1,0.6,1.3
	c0.4,0.3,0.9,0.4,1.5,0.4c0.6,0,1-0.1,1.3-0.3C166.9,84.3,167.1,84,167.1,83.6L167.1,83.6z"/>
<path class="st3" d="M215,62h91v38h-91V62z"/>
<path class="st4" d="M252.6,81.8h-4v2.9h4.7V86H247v-9.2h6.2V78h-4.6v2.6h4V81.8z M254.5,86v-9.2h3.1c1,0,1.8,0.2,2.4,0.6
	c0.6,0.4,0.9,1.1,0.9,1.9c0,0.4-0.1,0.8-0.4,1.1c-0.2,0.3-0.6,0.6-1,0.7c0.5,0.1,1,0.4,1.3,0.8c0.3,0.4,0.4,0.9,0.4,1.4
	c0,0.9-0.3,1.5-0.9,2c-0.6,0.4-1.4,0.7-2.4,0.7H254.5L254.5,86z M256.1,81.8v3h1.9c0.5,0,0.9-0.1,1.2-0.4c0.3-0.2,0.4-0.6,0.4-1.1
	c0-0.5-0.1-0.9-0.4-1.1c-0.2-0.3-0.6-0.4-1.1-0.4L256.1,81.8L256.1,81.8z M256.1,80.6h1.7c0.5,0,0.9-0.1,1.1-0.3
	c0.3-0.2,0.4-0.5,0.4-1c0-0.5-0.1-0.8-0.4-1c-0.3-0.2-0.7-0.3-1.3-0.3h-1.5V80.6L256.1,80.6z M267.9,83.6c0-0.4-0.1-0.7-0.4-0.9
	c-0.3-0.2-0.8-0.5-1.5-0.7c-1-0.3-1.8-0.6-2.4-1.1c-0.6-0.4-0.8-1-0.8-1.8c0-0.7,0.3-1.4,0.9-1.8c0.6-0.5,1.4-0.7,2.4-0.7
	c1,0,1.8,0.3,2.4,0.8s0.9,1.2,0.9,2l0,0h-1.5c0-0.5-0.2-0.9-0.5-1.2s-0.8-0.4-1.4-0.4c-0.6,0-1,0.1-1.3,0.4c-0.3,0.2-0.5,0.6-0.5,1
	c0,0.4,0.2,0.6,0.5,0.9s0.9,0.5,1.6,0.7c1,0.3,1.8,0.6,2.3,1.1c0.5,0.5,0.8,1.1,0.8,1.8c0,0.8-0.3,1.4-0.9,1.8
	c-0.6,0.5-1.4,0.7-2.4,0.7c-1,0-1.8-0.3-2.5-0.8c-0.7-0.5-1.1-1.2-1.1-2.1l0,0h1.5c0,0.6,0.2,1,0.6,1.3c0.4,0.3,0.9,0.4,1.5,0.4
	c0.6,0,1-0.1,1.3-0.3C267.7,84.3,267.9,84,267.9,83.6L267.9,83.6z"/>
<path class="st5" d="M168.9,26.9h-5v3.6h5.8V32H162V20.6h7.6v1.5h-5.7v3.2h5C168.9,25.4,168.9,26.9,168.9,26.9z M176.1,32
	c-0.1-0.2-0.1-0.4-0.2-0.6c0-0.2-0.1-0.4-0.1-0.6c-0.3,0.4-0.6,0.7-1,1c-0.4,0.3-0.9,0.4-1.4,0.4c-0.9,0-1.6-0.2-2-0.7
	c-0.5-0.5-0.7-1.1-0.7-1.9c0-0.8,0.3-1.5,1-1.9s1.6-0.7,2.7-0.7h1.5v-0.7c0-0.4-0.1-0.8-0.4-1c-0.3-0.2-0.6-0.4-1.1-0.4
	c-0.4,0-0.8,0.1-1,0.3c-0.2,0.2-0.4,0.5-0.4,0.8h-1.8l0,0c0-0.7,0.3-1.3,0.9-1.8c0.6-0.5,1.5-0.8,2.5-0.8c1,0,1.8,0.2,2.4,0.8
	c0.6,0.5,0.9,1.2,0.9,2.2v3.8c0,0.3,0,0.7,0.1,1c0,0.3,0.1,0.6,0.2,0.9L176.1,32L176.1,32z M173.8,30.6c0.5,0,0.9-0.1,1.3-0.4
	c0.4-0.2,0.6-0.5,0.8-0.8v-1.2h-1.5c-0.6,0-1,0.1-1.3,0.4c-0.3,0.3-0.5,0.6-0.5,1c0,0.3,0.1,0.6,0.3,0.8
	C173.1,30.5,173.4,30.6,173.8,30.6L173.8,30.6z M183.9,25.3l-0.8,0c-0.4,0-0.7,0.1-0.9,0.2c-0.3,0.2-0.5,0.4-0.6,0.7V32h-1.9v-8.5
	h1.7l0.1,1.2c0.2-0.4,0.5-0.8,0.8-1c0.3-0.2,0.7-0.4,1.2-0.4c0.1,0,0.2,0,0.3,0c0.1,0,0.2,0,0.3,0.1L183.9,25.3L183.9,25.3z
	 M187.3,32h-1.9V19.8h1.9V32z M192.2,28.6l0.2,0.8h0l1.9-5.9h2.1l-3.5,9.7c-0.2,0.6-0.5,1.1-0.9,1.5c-0.4,0.4-1,0.6-1.7,0.6
	c-0.2,0-0.3,0-0.5,0c-0.2,0-0.3-0.1-0.5-0.1l0.2-1.5l0.3,0c0.1,0,0.2,0,0.3,0c0.3,0,0.6-0.1,0.8-0.4c0.2-0.2,0.4-0.5,0.5-0.8
	l0.3-0.8l-3.1-8.4h2.1L192.2,28.6L192.2,28.6z M204.5,29L204.5,29L204.5,29l2.3-8.3h1.5l2.3,8.3l0,0.1l0-0.1l1.8-8.3h1.9L211.6,32
	h-1.7l-2.3-8.2h0l-2.3,8.2h-1.7l-2.7-11.4h1.9L204.5,29L204.5,29z M220.8,32c-0.1-0.2-0.1-0.4-0.2-0.6c0-0.2-0.1-0.4-0.1-0.6
	c-0.3,0.4-0.6,0.7-1,1c-0.4,0.3-0.9,0.4-1.4,0.4c-0.9,0-1.6-0.2-2-0.7c-0.5-0.5-0.7-1.1-0.7-1.9c0-0.8,0.3-1.5,1-1.9
	c0.6-0.5,1.6-0.7,2.7-0.7h1.5v-0.7c0-0.4-0.1-0.8-0.4-1s-0.6-0.4-1.1-0.4c-0.4,0-0.8,0.1-1,0.3c-0.2,0.2-0.4,0.5-0.4,0.8h-1.8l0,0
	c0-0.7,0.3-1.3,0.9-1.8s1.5-0.8,2.5-0.8c1,0,1.8,0.2,2.4,0.8c0.6,0.5,0.9,1.2,0.9,2.2v3.8c0,0.3,0,0.7,0.1,1c0,0.3,0.1,0.6,0.2,0.9
	L220.8,32L220.8,32z M218.4,30.6c0.5,0,0.9-0.1,1.3-0.4c0.4-0.2,0.6-0.5,0.8-0.8v-1.2H219c-0.6,0-1,0.1-1.3,0.4
	c-0.3,0.3-0.5,0.6-0.5,1c0,0.3,0.1,0.6,0.3,0.8S218,30.6,218.4,30.6L218.4,30.6z M228.6,25.3l-0.8,0c-0.4,0-0.7,0.1-0.9,0.2
	c-0.3,0.2-0.5,0.4-0.6,0.7V32h-1.9v-8.5h1.7l0.1,1.2c0.2-0.4,0.5-0.8,0.8-1c0.3-0.2,0.7-0.4,1.2-0.4c0.1,0,0.2,0,0.3,0
	c0.1,0,0.2,0,0.3,0.1C228.8,23.5,228.6,25.3,228.6,25.3z M231.6,23.5l0.1,1.2c0.3-0.4,0.6-0.8,1-1c0.4-0.2,0.9-0.4,1.4-0.4
	c0.9,0,1.6,0.3,2.1,0.8c0.5,0.5,0.7,1.4,0.7,2.5V32h-1.9v-5.3c0-0.6-0.1-1.1-0.4-1.4c-0.3-0.3-0.7-0.4-1.2-0.4c-0.4,0-0.7,0.1-1,0.2
	c-0.3,0.2-0.5,0.4-0.7,0.7V32h-1.9v-8.5L231.6,23.5L231.6,23.5z M241,32h-1.9v-8.5h1.9V32z M241,21.5h-1.9v-1.7h1.9V21.5z
	 M244.8,23.5l0.1,1.2c0.3-0.4,0.6-0.8,1-1c0.4-0.2,0.9-0.4,1.4-0.4c0.9,0,1.6,0.3,2.1,0.8c0.5,0.5,0.7,1.4,0.7,2.5V32h-1.9v-5.3
	c0-0.6-0.1-1.1-0.4-1.4c-0.3-0.3-0.7-0.4-1.2-0.4c-0.4,0-0.7,0.1-1,0.2c-0.3,0.2-0.5,0.4-0.7,0.7V32h-1.9v-8.5H244.8L244.8,23.5z
	 M251.8,27.9c0-1.3,0.3-2.4,0.9-3.3c0.6-0.8,1.4-1.2,2.5-1.2c0.5,0,0.9,0.1,1.3,0.3s0.7,0.5,1,0.9l0.2-1.1h1.6V32
	c0,1.1-0.3,1.9-1,2.5c-0.7,0.6-1.6,0.9-2.9,0.9c-0.4,0-0.9-0.1-1.3-0.2c-0.4-0.1-0.9-0.3-1.3-0.5l0.4-1.5c0.3,0.2,0.7,0.3,1,0.4
	c0.4,0.1,0.8,0.1,1.2,0.1c0.7,0,1.2-0.1,1.5-0.4c0.3-0.3,0.5-0.7,0.5-1.4v-0.9c-0.3,0.3-0.6,0.6-0.9,0.8c-0.4,0.2-0.8,0.3-1.2,0.3
	c-1,0-1.8-0.4-2.4-1.1c-0.6-0.8-0.9-1.7-0.9-3L251.8,27.9L251.8,27.9z M253.7,28.1c0,0.8,0.2,1.4,0.5,1.9c0.3,0.5,0.8,0.7,1.4,0.7
	c0.4,0,0.7-0.1,1-0.3c0.3-0.2,0.5-0.4,0.7-0.7v-3.7c-0.2-0.3-0.4-0.5-0.7-0.7c-0.3-0.2-0.6-0.3-1-0.3c-0.6,0-1.1,0.3-1.4,0.8
	c-0.3,0.5-0.5,1.3-0.5,2.1L253.7,28.1L253.7,28.1z"/>
<rect class="st6" width="428" height="579"/>
</svg>
