<svg xmlns="http://www.w3.org/2000/svg" xmlns:xlink="http://www.w3.org/1999/xlink" width="591" height="531" viewBox="0 0 591 531">
    <defs>
        <path id="a" d="M0 .18h39.877v45.446H0z"/>
        <path id="c" d="M.362.18h26.322v26.323H.362z"/>
        <path id="e" d="M0 .043h39.877v24.485H0z"/>
        <path id="g" d="M0 .18h39.877v45.446H0z"/>
    </defs>
    <g fill="none" fill-rule="evenodd" transform="translate(1)">
        <path fill="#3F424F" stroke="#3784F4" stroke-width="28" d="M546.8 278.9l-6.3-26.9-30-119.1 14.8-51.1-14.8-40.5-9.7-9.3-41.5 9.3L382 92.5h-46.8l-27.8-7.2-88.7-23.1h-52.5L121.4 110l-35.8 12.7H50.8l-24.8 63 24.8 38.2 25.5 55-25.5 36.3-16.4 23.7L50.8 399l34.8 8.5 50.6 37.1h82.5l18.3 5.7 11.8 3.7 25.8 31.6h74.1l84.5 31.4h36.5l40.8-24.3 14.8-62.4 50.7-83.7v-31.4z"/>
        <path fill="#D7E6FD" stroke="#FFF" stroke-width="8" d="M285 402.712l36-8.997h11V366.72l-31-42.988 10-28.993 9-24.994 7-28.992 20-15.996 6-15.996v-21.994L307.4 85.094 218.7 62h-52.5l-44.8 47.788-35.8 12.696H50.8L26 185.468l24.8 38.19 25.5 54.986-25.5 36.29-16.4 23.695 16.4 60.084 34.8 8.498 50.6 37.09h82.5L237 450v-23.294z"/>
        <g fill="#3784F4" opacity=".4">
            <path d="M99.707 342.897c.54-.779.313-1.825-.507-2.338l-14.859-9.28c-.82-.513-1.924-.298-2.464.48-.54.779-.314 1.825.507 2.338l14.859 9.28c.82.514 1.923.298 2.464-.48"/>
            <path d="M66.293 342.897c-.54-.779-.312-1.825.508-2.338l14.858-9.28c.82-.513 1.924-.298 2.464.48.54.779.314 1.825-.507 2.338l-14.858 9.28c-.821.514-1.925.298-2.465-.48M92.071 363.931h-7.063v7.011h-5.433v-7.011h-7.062v-5.393h7.062v-7.01h5.433v7.01h7.063v5.393zm2.29-17.462H70.223a2.796 2.796 0 0 0-2.806 2.785v23.961A2.795 2.795 0 0 0 70.223 376H94.36a2.795 2.795 0 0 0 2.806-2.785v-23.961a2.795 2.795 0 0 0-2.806-2.785z"/>
        </g>
        <path fill="#D7E6FD" stroke="#FFF" stroke-width="8" d="M546.8 278.9l-6.3-26.9-30-119.1 14.8-51.1-14.8-40.5-9.7-9.3-41.5 9.3L382 92.5h-46.8l-27.8-7.2L353 187v22l-6 16-20 16-7 29-9 25-10 29 31 43v27h-11l-36 9-48 24v23.3l11.8 3.7 25.8 31.6h74.1l84.5 31.4h36.5l40.8-24.3 14.8-62.4 50.7-83.7v-31.4z"/>
        <circle cx="329" cy="80" r="58" fill="#3784F4" fill-rule="nonzero"/>
        <circle cx="205" cy="168" r="58" fill="#FFF" fill-rule="nonzero"/>
        <g transform="translate(171 151.195)">
            <mask id="b" fill="#fff">
                <use xlink:href="#a"/>
            </mask>
            <path fill="#3784F4" d="M29.334 22.353a12.94 12.94 0 0 0 3.765-9.13C33.1 6.019 27.207.179 19.94.179c-7.27 0-13.162 5.84-13.162 13.044a12.94 12.94 0 0 0 3.766 9.13C4.388 24.613 0 30.482 0 37.368v8.258h39.877v-8.258c0-6.886-4.388-12.755-10.543-15.015" mask="url(#b)"/>
        </g>
        <path fill="#FFF" d="M196.206 182.479c0 .745-.113 1.346-.34 1.825l-3.745 7.892c-.421.949-1.954.949-2.355 0l-3.756-7.892c-.226-.479-.34-1.08-.34-1.825 0-1.438.515-2.672 1.544-3.69 1.029-1.02 2.274-1.53 3.724-1.53 1.451 0 2.696.51 3.725 1.53 1.029 1.018 1.543 2.252 1.543 3.69m-3.405 1.846c.514-.51.771-1.122.771-1.846s-.257-1.336-.771-1.846a2.545 2.545 0 0 0-1.863-.764c-.73 0-1.347.255-1.862.764a2.5 2.5 0 0 0-.772 1.846c0 .724.258 1.336.772 1.846.515.51 1.132.764 1.862.764.73 0 1.348-.254 1.863-.764"/>
        <g transform="translate(253 226)">
            <rect width="28" height="34" fill="#3784F4" fill-rule="nonzero" rx="2"/>
            <path fill="#FFF" d="M16.987 21.34h-5.075l-.983 3.118H8L12.975 10h2.969l4.955 14.458h-2.93l-.982-3.118zm-4.36-2.274h3.645l-1.788-5.68h-.06l-1.797 5.68z"/>
        </g>
        <g transform="translate(134 319)">
            <rect width="28" height="34" fill="#3784F4" fill-rule="nonzero" rx="2"/>
            <path fill="#FFF" d="M16.987 21.34h-5.075l-.983 3.118H8L12.975 10h2.969l4.955 14.458h-2.93l-.982-3.118zm-4.36-2.274h3.645l-1.788-5.68h-.06l-1.797 5.68z"/>
        </g>
        <path fill="#3784F4" d="M124.934 356.954a11.092 11.092 0 0 0 3.2-7.805c0-6.157-5.008-11.149-11.186-11.149-6.179 0-11.187 4.992-11.187 11.15 0 3.039 1.221 5.792 3.2 7.804-5.231 1.931-8.96 6.948-8.96 12.834v7.059h33.894v-7.06c0-5.885-3.73-10.902-8.961-12.833"/>
        <path fill="#FFF" d="M117.849 363.282l-6.524 6.502-.543 2.998 3.008-.541 6.524-6.502zM119.777 361.36l-.958.956-.4.398-.028.028 2.465 2.456.028-.027.4-.398.958-.955a.779.779 0 0 0 0-1.104l-1.358-1.353a.785.785 0 0 0-1.107 0"/>
        <g fill="#3784F4" opacity=".8">
            <path d="M218.707 249.897c.54-.779.313-1.825-.507-2.338l-14.859-9.28c-.82-.513-1.924-.298-2.464.48-.54.779-.314 1.825.507 2.338l14.859 9.28c.82.514 1.923.298 2.464-.48"/>
            <path d="M185.293 249.897c-.54-.779-.312-1.825.508-2.338l14.858-9.28c.82-.513 1.924-.298 2.464.48.54.779.314 1.825-.507 2.338l-14.858 9.28c-.821.514-1.925.298-2.465-.48M211.071 270.931h-7.063v7.011h-5.433v-7.011h-7.062v-5.393h7.062v-7.01h5.433v7.01h7.063v5.393zm2.29-17.462h-24.138a2.796 2.796 0 0 0-2.806 2.785v23.961a2.795 2.795 0 0 0 2.806 2.785h24.138a2.795 2.795 0 0 0 2.806-2.785v-23.961a2.795 2.795 0 0 0-2.806-2.785z"/>
        </g>
        <g transform="translate(211 139)">
            <rect width="28" height="34" fill="#3784F4" fill-rule="nonzero" rx="2"/>
            <path fill="#FFF" d="M16.987 21.34h-5.075l-.983 3.118H8L12.975 10h2.969l4.955 14.458h-2.93l-.982-3.118zm-4.36-2.274h3.645l-1.788-5.68h-.06l-1.797 5.68z"/>
        </g>
        <g transform="translate(295 51)">
            <g transform="translate(6 12)">
                <mask id="d" fill="#fff">
                    <use xlink:href="#c"/>
                </mask>
                <path fill="#FFF" d="M26.684 13.342c0 7.269-5.892 13.161-13.16 13.161-7.27 0-13.162-5.892-13.162-13.161C.362 6.073 6.255.18 13.523.18c7.269 0 13.161 5.892 13.161 13.16" mask="url(#d)"/>
            </g>
            <g transform="translate(0 33)">
                <mask id="f" fill="#fff">
                    <use xlink:href="#e"/>
                </mask>
                <path fill="#FFF" d="M39.877 16.196c0-8.921-7.232-16.153-16.153-16.153h-7.572C7.232.043 0 7.275 0 16.196v8.332h39.877v-8.332z" mask="url(#f)"/>
            </g>
            <path fill="#3784F4" d="M20.15 48.91a3.765 3.765 0 0 1-3.76-3.76 3.765 3.765 0 0 1 3.76-3.76 3.765 3.765 0 0 1 3.76 3.76 3.765 3.765 0 0 1-3.76 3.76zm8.15-2.417v-2.685h-1.847a6.408 6.408 0 0 0-.9-2.162l1.31-1.31-1.899-1.898-1.31 1.31a6.409 6.409 0 0 0-2.161-.9V37h-2.685v1.848a6.407 6.407 0 0 0-2.161.9l-1.31-1.31-1.9 1.898 1.311 1.31a6.393 6.393 0 0 0-.9 2.162H12v2.685h1.848c.166.782.477 1.511.9 2.161l-1.31 1.31 1.899 1.898 1.31-1.31a6.4 6.4 0 0 0 2.16.9V53.3h2.686v-1.848a6.401 6.401 0 0 0 2.161-.9l1.31 1.31 1.899-1.898-1.31-1.31a6.41 6.41 0 0 0 .9-2.161H28.3z"/>
            <rect width="28" height="34" x="40" fill="#FFF" fill-rule="nonzero" rx="2"/>
            <path fill="#3784F4" d="M56.987 21.34h-5.075l-.983 3.118H48L52.975 10h2.969l4.955 14.458h-2.93l-.982-3.118zm-4.36-2.274h3.645l-1.788-5.68h-.06l-1.797 5.68z"/>
        </g>
        <path fill="#3784F4" d="M243.934 263.954a11.092 11.092 0 0 0 3.2-7.805c0-6.157-5.008-11.149-11.186-11.149-6.179 0-11.187 4.992-11.187 11.15 0 3.039 1.221 5.792 3.2 7.804-5.231 1.931-8.96 6.948-8.96 12.834v7.059h33.894v-7.06c0-5.885-3.73-10.902-8.961-12.833"/>
        <path fill="#FFF" d="M236.849 270.282l-6.524 6.502-.543 2.998 3.008-.541 6.524-6.502zM238.777 268.36l-.958.956-.4.398-.028.028 2.465 2.456.028-.027.4-.398.958-.955a.779.779 0 0 0 0-1.104l-1.358-1.353a.785.785 0 0 0-1.107 0"/>
        <g fill="#3784F4" opacity=".4">
            <path d="M318.707 427.897c.54-.779.313-1.825-.507-2.338l-14.859-9.28c-.82-.513-1.924-.298-2.464.48-.54.779-.314 1.825.507 2.338l14.859 9.28c.82.514 1.923.298 2.464-.48"/>
            <path d="M285.293 427.897c-.54-.779-.312-1.825.508-2.338l14.858-9.28c.82-.513 1.924-.298 2.464.48.54.779.314 1.825-.507 2.338l-14.858 9.28c-.821.514-1.925.298-2.465-.48M311.071 448.931h-7.063v7.011h-5.433v-7.011h-7.062v-5.393h7.062v-7.01h5.433v7.01h7.063v5.393zm2.29-17.462h-24.138a2.796 2.796 0 0 0-2.806 2.785v23.961a2.795 2.795 0 0 0 2.806 2.785h24.138a2.795 2.795 0 0 0 2.806-2.785v-23.961a2.795 2.795 0 0 0-2.806-2.785z"/>
        </g>
        <g transform="translate(506 358)">
            <rect width="28" height="34" fill="#3784F4" fill-rule="nonzero" rx="2"/>
            <path fill="#FFF" d="M16.987 21.34h-5.075l-.983 3.118H8L12.975 10h2.969l4.955 14.458h-2.93l-.982-3.118zm-4.36-2.274h3.645l-1.788-5.68h-.06l-1.797 5.68z"/>
        </g>
        <g transform="translate(408 260)">
            <rect width="28" height="34" fill="#3784F4" fill-rule="nonzero" rx="2"/>
            <path fill="#FFF" d="M16.987 21.34h-5.075l-.983 3.118H8L12.975 10h2.969l4.955 14.458h-2.93l-.982-3.118zm-4.36-2.274h3.645l-1.788-5.68h-.06l-1.797 5.68z"/>
        </g>
        <g transform="translate(353 404)">
            <rect width="28" height="34" fill="#3784F4" fill-rule="nonzero" rx="2"/>
            <path fill="#FFF" d="M16.987 21.34h-5.075l-.983 3.118H8L12.975 10h2.969l4.955 14.458h-2.93l-.982-3.118zm-4.36-2.274h3.645l-1.788-5.68h-.06l-1.797 5.68z"/>
        </g>
        <path fill="#3784F4" d="M343.934 441.954a11.092 11.092 0 0 0 3.2-7.805c0-6.157-5.008-11.149-11.186-11.149-6.179 0-11.187 4.992-11.187 11.15 0 3.039 1.221 5.792 3.2 7.804-5.231 1.931-8.96 6.948-8.96 12.834v7.059h33.894v-7.06c0-5.885-3.73-10.902-8.961-12.833"/>
        <path fill="#FFF" d="M336.849 448.282l-6.524 6.502-.543 2.998 3.008-.541 6.524-6.502zM338.777 446.36l-.958.956-.4.398-.028.028 2.465 2.456.028-.027.4-.398.958-.955a.779.779 0 0 0 0-1.104l-1.358-1.353a.785.785 0 0 0-1.107 0"/>
        <g fill="#3784F4" opacity=".8">
            <path d="M471.707 381.897c.54-.779.313-1.825-.507-2.338l-14.859-9.28c-.82-.513-1.924-.298-2.464.48-.54.779-.314 1.825.507 2.338l14.859 9.28c.82.514 1.923.298 2.464-.48"/>
            <path d="M438.293 381.897c-.54-.779-.312-1.825.508-2.338l14.858-9.28c.82-.513 1.924-.298 2.464.48.54.779.314 1.825-.507 2.338l-14.858 9.28c-.821.514-1.925.298-2.465-.48M464.071 402.931h-7.063v7.011h-5.433v-7.011h-7.062v-5.393h7.062v-7.01h5.433v7.01h7.063v5.393zm2.29-17.462h-24.138a2.796 2.796 0 0 0-2.806 2.785v23.961a2.795 2.795 0 0 0 2.806 2.785h24.138a2.795 2.795 0 0 0 2.806-2.785v-23.961a2.795 2.795 0 0 0-2.806-2.785z"/>
        </g>
        <path fill="#3784F4" d="M496.934 395.954a11.092 11.092 0 0 0 3.2-7.805c0-6.157-5.008-11.149-11.186-11.149-6.179 0-11.187 4.992-11.187 11.15 0 3.039 1.221 5.792 3.2 7.804-5.231 1.931-8.96 6.948-8.96 12.834v7.059h33.894v-7.06c0-5.885-3.73-10.902-8.961-12.833"/>
        <path fill="#FFF" d="M489.849 402.282l-6.524 6.502-.543 2.998 3.008-.541 6.524-6.502zM491.777 400.36l-.958.956-.4.398-.028.028 2.465 2.456.028-.027.4-.398.958-.955a.779.779 0 0 0 0-1.104l-1.358-1.353a.785.785 0 0 0-1.107 0"/>
        <path fill="#3F424F" d="M174.105 104V92.625h3.688c1.443 0 2.616.45 3.52 1.352.903.9 1.355 2.06 1.355 3.476v1.727c0 1.422-.452 2.58-1.356 3.476-.903.896-2.076 1.344-3.519 1.344h-3.688zm1.899-9.852v8.336h1.734c.943 0 1.684-.307 2.223-.921.539-.615.809-1.41.809-2.383v-1.743c0-.963-.27-1.752-.81-2.367-.538-.614-1.279-.922-2.222-.922h-1.734zM186.402 104h-1.898v-8.453h1.898V104zm0-10.523h-1.898v-1.665h1.898v1.665zm6.875 8.226c0-.292-.125-.534-.375-.726-.25-.193-.716-.362-1.398-.508-1.01-.214-1.775-.517-2.293-.91-.518-.394-.777-.929-.777-1.606 0-.708.3-1.312.898-1.812.599-.5 1.388-.75 2.367-.75 1.031 0 1.85.254 2.457.761.607.508.897 1.137.871 1.887l-.015.047h-1.82a1.19 1.19 0 0 0-.399-.898c-.266-.25-.63-.376-1.094-.376-.458 0-.807.103-1.047.31a.958.958 0 0 0-.359.753c0 .297.113.533.34.707.226.175.686.33 1.379.465 1.062.219 1.85.527 2.363.926.513.398.77.941.77 1.629 0 .76-.314 1.377-.942 1.851-.627.474-1.454.711-2.48.711-1.1 0-1.966-.281-2.602-.844-.635-.562-.937-1.208-.906-1.937l.015-.047h1.766c.02.49.198.846.531 1.07.334.224.74.336 1.22.336.489 0 .866-.094 1.132-.281a.882.882 0 0 0 .398-.758zm5.93-8.21v2.054h1.516v1.406h-1.516v4.672c0 .349.076.598.227.746.15.149.351.223.601.223a1.852 1.852 0 0 0 .586-.102l.203 1.39a2.177 2.177 0 0 1-.578.208c-.224.05-.456.074-.695.074-.698 0-1.245-.204-1.64-.613-.397-.41-.595-1.051-.595-1.926v-4.672h-1.289v-1.406h1.29v-2.055h1.89zm7.414 3.765l-.812-.031c-.37 0-.679.078-.926.234a1.544 1.544 0 0 0-.574.664V104h-1.899v-8.453h1.735l.125 1.226c.213-.432.488-.77.824-1.015a1.919 1.919 0 0 1 1.16-.367c.114 0 .221.009.32.027.1.018.19.04.274.066l-.227 1.774zm3.352 6.742h-1.899v-8.453h1.899V104zm0-10.523h-1.899v-1.665h1.899v1.665zm5.617 9.171c.463 0 .854-.136 1.172-.41a1.3 1.3 0 0 0 .476-1.027h1.719l.016.047c.026.791-.296 1.474-.965 2.047-.67.573-1.475.86-2.418.86-1.245 0-2.2-.402-2.863-1.204-.665-.802-.997-1.818-.997-3.047v-.273c0-1.224.332-2.239.997-3.043.664-.805 1.618-1.207 2.863-1.207 1.015 0 1.84.295 2.472.886.633.591.94 1.343.918 2.254l-.015.047h-1.727c0-.463-.152-.857-.457-1.18-.304-.322-.702-.484-1.191-.484-.714 0-1.219.26-1.516.777-.297.519-.445 1.168-.445 1.95v.273c0 .797.148 1.452.445 1.965.297.513.802.77 1.516.77zm7.265-9.156v2.055h1.516v1.406h-1.516v4.672c0 .349.076.598.227.746.151.149.352.223.602.223a1.852 1.852 0 0 0 .586-.102l.203 1.39a2.177 2.177 0 0 1-.578.208c-.224.05-.456.074-.696.074-.698 0-1.245-.204-1.64-.613-.396-.41-.594-1.051-.594-1.926v-4.672h-1.29v-1.406h1.29v-2.055h1.89zM234.652 104h-1.898v-9.57h-2.313V93.03l4.211-.406V104z"/>
        <circle cx="438" cy="181" r="58" fill="#FFF" fill-rule="nonzero"/>
        <path fill="#3F424F" d="M310.754 8.227l.016.046c.02 1.151-.353 2.088-1.122 2.809-.768.721-1.808 1.082-3.12 1.082-1.329 0-2.408-.447-3.239-1.34-.83-.893-1.246-2.035-1.246-3.426V5.234c0-1.385.41-2.527 1.23-3.425.82-.899 1.887-1.348 3.2-1.348 1.343 0 2.402.353 3.175 1.059.774.705 1.15 1.654 1.13 2.847l-.016.047h-1.836c0-.766-.207-1.362-.621-1.789-.414-.427-1.025-.64-1.832-.64-.776 0-1.392.307-1.848.921-.456.615-.684 1.386-.684 2.313v2.18c0 .937.233 1.713.7 2.328.466.614 1.095.921 1.886.921.787 0 1.383-.21 1.79-.632.406-.422.609-1.019.609-1.79h1.828zm1.281-.532c0-1.255.344-2.286 1.031-3.093.698-.808 1.644-1.211 2.836-1.211 1.214 0 2.164.403 2.852 1.21.693.803 1.039 1.834 1.039 3.094v.164c0 1.271-.346 2.308-1.04 3.11-.687.797-1.632 1.195-2.835 1.195-1.208 0-2.159-.401-2.852-1.203-.687-.802-1.03-1.836-1.03-3.102v-.164zm1.899.164c0 .823.161 1.495.484 2.016.318.516.818.773 1.5.773.661 0 1.156-.257 1.484-.773.334-.52.5-1.193.5-2.016v-.164c0-.807-.166-1.471-.5-1.992-.328-.526-.828-.789-1.5-.789-.661 0-1.156.263-1.484.79-.323.525-.484 1.19-.484 1.991v.164zm12.78 2.907a2.892 2.892 0 0 1-1.007 1.035c-.406.242-.875.363-1.406.363-.906 0-1.615-.289-2.125-.867-.51-.578-.766-1.477-.766-2.695V3.547h1.89v5.07c0 .74.12 1.258.36 1.555.24.297.602.445 1.086.445.458 0 .843-.082 1.152-.246.31-.164.554-.402.73-.715v-6.11h1.9V12h-1.657l-.156-1.234zm5.516-7.22l.11 1.22c.276-.433.624-.77 1.043-1.012.42-.242.892-.363 1.418-.363.88 0 1.566.267 2.058.8.493.534.739 1.366.739 2.497V12h-1.899V6.703c0-.635-.131-1.087-.394-1.355-.263-.269-.663-.403-1.2-.403-.37 0-.7.082-.992.246-.291.164-.531.39-.718.676V12h-1.899V3.547h1.734zm9.704-2.054v2.055h1.515v1.406h-1.515v4.672c0 .349.075.598.226.746.151.149.352.223.602.223a1.852 1.852 0 0 0 .586-.102l.203 1.39a2.177 2.177 0 0 1-.578.208c-.224.05-.456.074-.696.074-.698 0-1.244-.204-1.64-.613-.396-.41-.594-1.051-.594-1.926V4.953h-1.29V3.547h1.29V1.492h1.89zm7.414 3.766l-.813-.031c-.37 0-.678.078-.926.234a1.544 1.544 0 0 0-.574.664V12h-1.898V3.547h1.734l.125 1.226c.214-.432.488-.77.824-1.015a1.919 1.919 0 0 1 1.16-.367c.115 0 .222.009.32.027.1.018.19.04.274.066l-.226 1.774zm4.132 3.351l.188.844h.047l1.851-5.906h2.079l-3.5 9.734a4.34 4.34 0 0 1-.946 1.508c-.406.417-.982.625-1.726.625a2.95 2.95 0 0 1-.504-.047 7.298 7.298 0 0 1-.52-.11l.211-1.468.29.024c.124.01.218.015.28.015.344 0 .619-.117.825-.351.205-.235.373-.506.504-.813l.312-.766-3.07-8.351h2.07l1.61 5.062z"/>
        <g transform="translate(404 164.195)">
            <mask id="h" fill="#fff">
                <use xlink:href="#g"/>
            </mask>
            <path fill="#3784F4" d="M29.334 22.353a12.94 12.94 0 0 0 3.765-9.13C33.1 6.019 27.207.179 19.94.179c-7.27 0-13.162 5.84-13.162 13.044a12.94 12.94 0 0 0 3.766 9.13C4.388 24.613 0 30.482 0 37.368v8.258h39.877v-8.258c0-6.886-4.388-12.755-10.543-15.015" mask="url(#h)"/>
        </g>
        <path fill="#FFF" d="M429.206 195.479c0 .745-.113 1.346-.34 1.825l-3.745 7.892c-.421.949-1.954.949-2.355 0l-3.756-7.892c-.226-.479-.34-1.08-.34-1.825 0-1.438.515-2.672 1.544-3.69 1.029-1.02 2.274-1.53 3.724-1.53 1.451 0 2.696.51 3.725 1.53 1.029 1.018 1.543 2.252 1.543 3.69m-3.405 1.846c.514-.51.771-1.122.771-1.846s-.257-1.336-.771-1.846a2.545 2.545 0 0 0-1.863-.764c-.73 0-1.347.255-1.862.764a2.5 2.5 0 0 0-.772 1.846c0 .724.258 1.336.772 1.846.515.51 1.132.764 1.862.764.73 0 1.348-.254 1.863-.764"/>
        <g transform="translate(444 152)">
            <rect width="28" height="34" fill="#3784F4" fill-rule="nonzero" rx="2"/>
            <path fill="#FFF" d="M16.987 21.34h-5.075l-.983 3.118H8L12.975 10h2.969l4.955 14.458h-2.93l-.982-3.118zm-4.36-2.274h3.645l-1.788-5.68h-.06l-1.797 5.68z"/>
        </g>
        <g transform="translate(474 152)">
            <rect width="28" height="34" fill="#E84D4D" fill-rule="nonzero" rx="2"/>
            <path fill="#FFF" d="M9 24.46V10h4.886c1.702 0 3.03.331 3.983.993.953.662 1.43 1.652 1.43 2.97 0 .668-.177 1.266-.532 1.792-.354.527-.869.922-1.544 1.187.867.185 1.518.583 1.952 1.192.433.609.65 1.314.65 2.115 0 1.384-.457 2.432-1.37 3.143-.914.712-2.208 1.068-3.884 1.068H9zm2.9-6.396v4.171h2.671c.768 0 1.354-.167 1.758-.501.404-.335.606-.83.606-1.485 0-.708-.172-1.25-.516-1.624-.345-.374-.887-.56-1.629-.56H11.9zm0-2.006h2.086c.774 0 1.37-.159 1.787-.477.417-.317.626-.78.626-1.39 0-.669-.21-1.162-.63-1.48-.421-.318-1.049-.476-1.883-.476H11.9v3.823z"/>
        </g>
        <g transform="translate(241 139)">
            <rect width="28" height="34" fill="#E84D4D" fill-rule="nonzero" rx="2"/>
            <path fill="#FFF" d="M9 24.46V10h4.886c1.702 0 3.03.331 3.983.993.953.662 1.43 1.652 1.43 2.97 0 .668-.177 1.266-.532 1.792-.354.527-.869.922-1.544 1.187.867.185 1.518.583 1.952 1.192.433.609.65 1.314.65 2.115 0 1.384-.457 2.432-1.37 3.143-.914.712-2.208 1.068-3.884 1.068H9zm2.9-6.396v4.171h2.671c.768 0 1.354-.167 1.758-.501.404-.335.606-.83.606-1.485 0-.708-.172-1.25-.516-1.624-.345-.374-.887-.56-1.629-.56H11.9zm0-2.006h2.086c.774 0 1.37-.159 1.787-.477.417-.317.626-.78.626-1.39 0-.669-.21-1.162-.63-1.48-.421-.318-1.049-.476-1.883-.476H11.9v3.823z"/>
        </g>
        <g transform="translate(365 51)">
            <rect width="28" height="34" fill="#E84D4D" fill-rule="nonzero" rx="2"/>
            <path fill="#FFF" d="M9 24.46V10h4.886c1.702 0 3.03.331 3.983.993.953.662 1.43 1.652 1.43 2.97 0 .668-.177 1.266-.532 1.792-.354.527-.869.922-1.544 1.187.867.185 1.518.583 1.952 1.192.433.609.65 1.314.65 2.115 0 1.384-.457 2.432-1.37 3.143-.914.712-2.208 1.068-3.884 1.068H9zm2.9-6.396v4.171h2.671c.768 0 1.354-.167 1.758-.501.404-.335.606-.83.606-1.485 0-.708-.172-1.25-.516-1.624-.345-.374-.887-.56-1.629-.56H11.9zm0-2.006h2.086c.774 0 1.37-.159 1.787-.477.417-.317.626-.78.626-1.39 0-.669-.21-1.162-.63-1.48-.421-.318-1.049-.476-1.883-.476H11.9v3.823z"/>
        </g>
        <g transform="translate(283 226)">
            <rect width="28" height="34" fill="#E84D4D" fill-rule="nonzero" rx="2"/>
            <path fill="#FFF" d="M9 24.46V10h4.886c1.702 0 3.03.331 3.983.993.953.662 1.43 1.652 1.43 2.97 0 .668-.177 1.266-.532 1.792-.354.527-.869.922-1.544 1.187.867.185 1.518.583 1.952 1.192.433.609.65 1.314.65 2.115 0 1.384-.457 2.432-1.37 3.143-.914.712-2.208 1.068-3.884 1.068H9zm2.9-6.396v4.171h2.671c.768 0 1.354-.167 1.758-.501.404-.335.606-.83.606-1.485 0-.708-.172-1.25-.516-1.624-.345-.374-.887-.56-1.629-.56H11.9zm0-2.006h2.086c.774 0 1.37-.159 1.787-.477.417-.317.626-.78.626-1.39 0-.669-.21-1.162-.63-1.48-.421-.318-1.049-.476-1.883-.476H11.9v3.823z"/>
        </g>
        <g transform="translate(164 319)">
            <rect width="28" height="34" fill="#E84D4D" fill-rule="nonzero" rx="2"/>
            <path fill="#FFF" d="M9 24.46V10h4.886c1.702 0 3.03.331 3.983.993.953.662 1.43 1.652 1.43 2.97 0 .668-.177 1.266-.532 1.792-.354.527-.869.922-1.544 1.187.867.185 1.518.583 1.952 1.192.433.609.65 1.314.65 2.115 0 1.384-.457 2.432-1.37 3.143-.914.712-2.208 1.068-3.884 1.068H9zm2.9-6.396v4.171h2.671c.768 0 1.354-.167 1.758-.501.404-.335.606-.83.606-1.485 0-.708-.172-1.25-.516-1.624-.345-.374-.887-.56-1.629-.56H11.9zm0-2.006h2.086c.774 0 1.37-.159 1.787-.477.417-.317.626-.78.626-1.39 0-.669-.21-1.162-.63-1.48-.421-.318-1.049-.476-1.883-.476H11.9v3.823z"/>
        </g>
        <path fill="#3F424F" d="M407.105 117v-11.375h3.688c1.443 0 2.616.45 3.52 1.352.903.9 1.355 2.06 1.355 3.476v1.727c0 1.422-.452 2.58-1.356 3.476-.903.896-2.076 1.344-3.519 1.344h-3.688zm1.899-9.852v8.336h1.734c.943 0 1.684-.307 2.223-.921.539-.615.809-1.41.809-2.383v-1.743c0-.963-.27-1.752-.81-2.367-.538-.614-1.279-.922-2.222-.922h-1.734zM419.402 117h-1.898v-8.453h1.898V117zm0-10.523h-1.898v-1.665h1.898v1.665zm6.875 8.226c0-.292-.125-.534-.375-.726-.25-.193-.716-.362-1.398-.508-1.01-.214-1.775-.517-2.293-.91-.518-.394-.777-.929-.777-1.606 0-.708.3-1.312.898-1.812.599-.5 1.388-.75 2.367-.75 1.031 0 1.85.254 2.457.761.607.508.897 1.137.871 1.887l-.015.047h-1.82a1.19 1.19 0 0 0-.399-.898c-.266-.25-.63-.376-1.094-.376-.458 0-.807.103-1.047.31a.958.958 0 0 0-.359.753c0 .297.113.533.34.707.226.175.686.33 1.379.465 1.062.219 1.85.527 2.363.926.513.398.77.941.77 1.629 0 .76-.314 1.377-.942 1.851-.627.474-1.454.711-2.48.711-1.1 0-1.966-.281-2.602-.844-.635-.562-.937-1.208-.906-1.937l.015-.047h1.766c.02.49.198.846.531 1.07.334.224.74.336 1.22.336.489 0 .866-.094 1.132-.281a.882.882 0 0 0 .398-.758zm5.93-8.21v2.054h1.516v1.406h-1.516v4.672c0 .349.076.598.227.746.15.149.351.223.601.223a1.852 1.852 0 0 0 .586-.102l.203 1.39a2.177 2.177 0 0 1-.578.208c-.224.05-.456.074-.695.074-.698 0-1.245-.204-1.64-.613-.397-.41-.595-1.051-.595-1.926v-4.672h-1.289v-1.406h1.29v-2.055h1.89zm7.414 3.765l-.812-.031c-.37 0-.679.078-.926.234a1.543 1.543 0 0 0-.574.664V117h-1.899v-8.453h1.735l.125 1.226c.213-.432.488-.77.824-1.015a1.919 1.919 0 0 1 1.16-.367c.114 0 .221.009.32.027.1.018.19.04.274.066l-.227 1.774zm3.352 6.742h-1.899v-8.453h1.899V117zm0-10.523h-1.899v-1.665h1.899v1.665zm5.617 9.171c.463 0 .854-.136 1.172-.41a1.3 1.3 0 0 0 .476-1.027h1.719l.016.047c.026.791-.296 1.474-.965 2.047-.67.573-1.475.86-2.418.86-1.245 0-2.2-.402-2.863-1.204-.665-.802-.997-1.818-.997-3.047v-.273c0-1.224.332-2.239.997-3.043.664-.805 1.618-1.207 2.863-1.207 1.015 0 1.84.295 2.473.886.632.591.938 1.343.917 2.254l-.015.047h-1.727c0-.463-.152-.857-.457-1.18-.304-.322-.702-.484-1.191-.484-.714 0-1.219.26-1.516.777-.297.519-.445 1.168-.445 1.95v.273c0 .797.148 1.452.445 1.965.297.513.802.77 1.516.77zm7.265-9.156v2.055h1.516v1.406h-1.516v4.672c0 .349.076.598.227.746.151.149.352.223.602.223a1.852 1.852 0 0 0 .586-.102l.203 1.39a2.177 2.177 0 0 1-.578.208c-.224.05-.456.074-.696.074-.698 0-1.245-.204-1.64-.613-.396-.41-.594-1.051-.594-1.926v-4.672h-1.29v-1.406h1.29v-2.055h1.89zM470.45 117h-7.554v-1.305l3.703-4.039c.604-.661 1.02-1.204 1.25-1.629.229-.424.343-.84.343-1.246 0-.51-.148-.937-.445-1.281-.297-.344-.698-.516-1.203-.516-.667 0-1.161.188-1.484.563-.323.375-.485.89-.485 1.547h-1.836l-.015-.047c-.026-1.01.304-1.86.992-2.55.687-.691 1.63-1.036 2.828-1.036 1.094 0 1.958.302 2.594.906.635.604.953 1.393.953 2.367 0 .651-.184 1.274-.55 1.868-.368.593-.937 1.315-1.708 2.164l-2.531 2.671.023.047h5.125V117z"/>
        <g fill="#3784F4" opacity=".25">
            <path d="M373.707 283.897c.54-.779.313-1.825-.507-2.338l-14.859-9.28c-.82-.513-1.924-.298-2.464.48-.54.779-.314 1.825.507 2.338l14.859 9.28c.82.514 1.923.298 2.464-.48"/>
            <path d="M340.293 283.897c-.54-.779-.312-1.825.508-2.338l14.858-9.28c.82-.513 1.924-.298 2.464.48.54.779.314 1.825-.507 2.338l-14.858 9.28c-.821.514-1.925.298-2.465-.48M366.071 304.931h-7.063v7.011h-5.433v-7.011h-7.062v-5.393h7.062v-7.01h5.433v7.01h7.063v5.393zm2.29-17.462h-24.138a2.796 2.796 0 0 0-2.806 2.785v23.961a2.795 2.795 0 0 0 2.806 2.785h24.138a2.795 2.795 0 0 0 2.806-2.785v-23.961a2.795 2.795 0 0 0-2.806-2.785z"/>
        </g>
        <g>
            <path fill="#3784F4" d="M398.934 297.954a11.092 11.092 0 0 0 3.2-7.805c0-6.157-5.008-11.149-11.186-11.149-6.179 0-11.187 4.992-11.187 11.15 0 3.039 1.221 5.792 3.2 7.804-5.231 1.931-8.96 6.948-8.96 12.834v7.059h33.894v-7.06c0-5.885-3.73-10.902-8.961-12.833"/>
            <path fill="#FFF" d="M391.849 304.282l-6.524 6.502-.543 2.998 3.008-.541 6.524-6.502zM393.777 302.36l-.958.956-.4.398-.028.028 2.465 2.456.028-.027.4-.398.958-.955a.779.779 0 0 0 0-1.104l-1.358-1.353a.785.785 0 0 0-1.107 0"/>
        </g>
        <g fill-rule="nonzero" transform="translate(0 173)">
            <circle cx="65.737" cy="66.789" r="49.737" stroke="#E84D4D" stroke-width="2"/>
            <circle cx="66.026" cy="67.079" r="58.026" stroke="#E84D4D" stroke-width="2"/>
            <circle cx="66.316" cy="66.368" r="66.316" stroke="#E84D4D" stroke-width="2"/>
            <circle cx="65.868" cy="66.921" r="24.868" stroke="#E84D4D" stroke-width="2"/>
            <circle cx="66.158" cy="66.211" r="33.158" stroke="#E84D4D" stroke-width="2"/>
            <circle cx="66.447" cy="66.5" r="41.447" stroke="#E84D4D" stroke-width="2"/>
            <g fill="#E84D4D">
                <path d="M51.057 77.811l12.895-19.929 7.034 7.034z"/>
                <path d="M80.732 53.11L67.837 73.039l-7.034-7.034z"/>
            </g>
        </g>
    </g>
</svg>
